epoch,accuracy,loss,val_accuracy,val_loss
0,0.8341853618621826,0.8145668506622314,0.8977956175804138,0.5978608727455139
1,0.9308735132217407,0.29618319869041443,0.9418837428092957,0.3535882532596588
2,0.954434335231781,0.17779718339443207,0.9418837428092957,0.30042365193367004
3,0.9666592478752136,0.12160994857549667,0.9358717203140259,0.28730329871177673
4,0.9759946465492249,0.08251123875379562,0.9438877701759338,0.2691739797592163
5,0.9828850626945496,0.05668015033006668,0.9519038200378418,0.2554992735385895
6,0.9899978041648865,0.03650125116109848,0.959919810295105,0.2760123014450073
7,0.9926650524139404,0.026264986023306847,0.9378757476806641,0.36115580797195435
8,0.995110034942627,0.017179280519485474,0.9478957653045654,0.3950599730014801
9,0.9944432377815247,0.025805721059441566,0.9539077877998352,0.34444284439086914
10,0.9966659545898438,0.014128833077847958,0.9378757476806641,0.4170179069042206
11,0.997332751750946,0.012147137895226479,0.9579158425331116,0.3084428906440735
12,0.9962213635444641,0.01671537756919861,0.9498997926712036,0.2711062729358673
13,0.9964436292648315,0.016059860587120056,0.9639278650283813,0.3237488865852356
14,0.9984440803527832,0.006960899569094181,0.959919810295105,0.2664239704608917
15,0.9975550174713135,0.014094964601099491,0.9699398875236511,0.21740417182445526
16,0.9993332028388977,0.005742019508033991,0.9679358601570129,0.25999799370765686
17,0.9979995489120483,0.012165491469204426,0.9579158425331116,0.35902202129364014
18,0.9977772831916809,0.007230633404105902,0.9579158425331116,0.2722855508327484
19,0.9986663460731506,0.01033283956348896,0.9579158425331116,0.3881217837333679
20,0.9984440803527832,0.012812730856239796,0.9478957653045654,0.46680307388305664
21,0.9971104860305786,0.010059299878776073,0.9498997926712036,0.5092721581459045
22,0.9982218146324158,0.008774464949965477,0.959919810295105,0.25294360518455505
23,0.9986663460731506,0.005859985947608948,0.9559118151664734,0.21486042439937592
24,0.997332751750946,0.01194468978792429,0.9539077877998352,0.401421457529068
25,0.9975550174713135,0.010667775757610798,0.959919810295105,0.2909245193004608
26,0.9979995489120483,0.007002732250839472,0.959919810295105,0.31514373421669006
27,0.9995554685592651,0.0029589354526251554,0.9679358601570129,0.2318209558725357
28,0.9984440803527832,0.01205388642847538,0.9659318923950195,0.2961844801902771
29,0.9984440803527832,0.004585907328873873,0.9679358601570129,0.24971942603588104
