,Registration number,Prefix,CatalogNumber,Genus,species,subspecies,Author and year,Parentheses,sex,Identifier,Identification date,Current Collection Name,Basis of Record,Preserved Part,Present in Collection ,Is printed,Datagroup preferred,Determination preferred,Is partial determination,Family,Subfamily,Tribus,Order,Suborder,set
0,ZMA.INS.1276234,ZMA.INS,1276234,Pachliopta,adamas ,adamas,"Zinken, 1831",1,male,"Moonen, J.J.M.",2016/02/06,Lepidoptera,PreservedSpecimen,WholeOrganism,yes,1,1,1,0,Papilionidae,Papilioninae,Troidini,Lepidoptera,Rhopalocera,6
1,ZMA.INS.1276665,ZMA.INS,1276665,Pachliopta,adamas ,adamas,"Zinken, 1831",1,female,"Moonen, J.J.M.",2016/02/14,Lepidoptera,PreservedSpecimen,WholeOrganism,yes,1,1,1,0,Papilionidae,Papilioninae,Troidini,Lepidoptera,Rhopalocera,6
2,ZMA.INS.1276220,ZMA.INS,1276220,Graphium,adonarensis,lycianus,"Toxopeus, 1951",1,male,"Moonen, J.J.M.",2016/02/05,Lepidoptera,PreservedSpecimen,WholeOrganism,yes,1,1,1,0,Papilionidae,Papilioninae,Leptocircini,Lepidoptera,Rhopalocera,6
3,ZMA.INS.1276333,ZMA.INS,1276333,Graphium,adonarensis,lycianus,"Toxopeus, 1951",1,male,"Moonen, J.J.M.",2016/02/06,Lepidoptera,PreservedSpecimen,WholeOrganism,yes,1,1,1,0,Papilionidae,Papilioninae,Leptocircini,Lepidoptera,Rhopalocera,6
4,ZMA.INS.1276342,ZMA.INS,1276342,Graphium,adonarensis,lycianus,"Toxopeus, 1951",1,male,"Moonen, J.J.M.",2016/02/06,Lepidoptera,PreservedSpecimen,WholeOrganism,yes,1,1,1,0,Papilionidae,Papilioninae,Leptocircini,Lepidoptera,Rhopalocera,6
5,ZMA.INS.1276362,ZMA.INS,1276362,Graphium,adonarensis,lycianus,"Toxopeus, 1951",1,male,"Moonen, J.J.M.",2016/02/06,Lepidoptera,PreservedSpecimen,WholeOrganism,yes,1,1,1,0,Papilionidae,Papilioninae,Leptocircini,Lepidoptera,Rhopalocera,6
6,ZMA.INS.1276377,ZMA.INS,1276377,Graphium,adonarensis,lycianus,"Toxopeus, 1951",1,male,"Moonen, J.J.M.",2016/02/06,Lepidoptera,PreservedSpecimen,WholeOrganism,yes,1,1,1,0,Papilionidae,Papilioninae,Leptocircini,Lepidoptera,Rhopalocera,6
7,ZMA.INS.1276378,ZMA.INS,1276378,Graphium,adonarensis,lycianus,"Toxopeus, 1951",1,male,"Moonen, J.J.M.",2016/02/06,Lepidoptera,PreservedSpecimen,WholeOrganism,yes,1,1,1,0,Papilionidae,Papilioninae,Leptocircini,Lepidoptera,Rhopalocera,6
8,ZMA.INS.1276398,ZMA.INS,1276398,Graphium,adonarensis,lycianus,"Toxopeus, 1951",1,male,"Moonen, J.J.M.",2016/02/06,Lepidoptera,PreservedSpecimen,WholeOrganism,yes,1,1,1,0,Papilionidae,Papilioninae,Leptocircini,Lepidoptera,Rhopalocera,6
9,ZMA.INS.1276412,ZMA.INS,1276412,Graphium,adonarensis,lycianus,"Toxopeus, 1951",1,male,"Moonen, J.J.M.",2016/02/06,Lepidoptera,PreservedSpecimen,WholeOrganism,yes,1,1,1,0,Papilionidae,Papilioninae,Leptocircini,Lepidoptera,Rhopalocera,6
10,ZMA.INS.1276417,ZMA.INS,1276417,Graphium,adonarensis,lycianus,"Toxopeus, 1951",1,male,"Moonen, J.J.M.",2016/02/06,Lepidoptera,PreservedSpecimen,WholeOrganism,yes,1,1,1,0,Papilionidae,Papilioninae,Leptocircini,Lepidoptera,Rhopalocera,6
11,ZMA.INS.1276418,ZMA.INS,1276418,Graphium,adonarensis,lycianus,"Toxopeus, 1951",1,male,"Moonen, J.J.M.",2016/02/06,Lepidoptera,PreservedSpecimen,WholeOrganism,yes,1,1,1,0,Papilionidae,Papilioninae,Leptocircini,Lepidoptera,Rhopalocera,6
12,ZMA.INS.1276419,ZMA.INS,1276419,Graphium,adonarensis,lycianus,"Toxopeus, 1951",1,male,"Moonen, J.J.M.",2016/02/06,Lepidoptera,PreservedSpecimen,WholeOrganism,yes,1,1,1,0,Papilionidae,Papilioninae,Leptocircini,Lepidoptera,Rhopalocera,6
13,ZMA.INS.1276422,ZMA.INS,1276422,Graphium,adonarensis,lycianus,"Toxopeus, 1951",1,male,"Moonen, J.J.M.",2016/02/06,Lepidoptera,PreservedSpecimen,WholeOrganism,yes,1,1,1,0,Papilionidae,Papilioninae,Leptocircini,Lepidoptera,Rhopalocera,6
14,ZMA.INS.1276424,ZMA.INS,1276424,Graphium,adonarensis,lycianus,"Toxopeus, 1951",1,male,"Moonen, J.J.M.",2016/02/06,Lepidoptera,PreservedSpecimen,WholeOrganism,yes,1,1,1,0,Papilionidae,Papilioninae,Leptocircini,Lepidoptera,Rhopalocera,6
15,ZMA.INS.1276430,ZMA.INS,1276430,Graphium,adonarensis,lycianus,"Toxopeus, 1951",1,male,"Moonen, J.J.M.",2016/02/06,Lepidoptera,PreservedSpecimen,WholeOrganism,yes,1,1,1,0,Papilionidae,Papilioninae,Leptocircini,Lepidoptera,Rhopalocera,6
16,ZMA.INS.1276440,ZMA.INS,1276440,Graphium,adonarensis,lycianus,"Toxopeus, 1951",1,male,"Moonen, J.J.M.",2016/02/06,Lepidoptera,PreservedSpecimen,WholeOrganism,yes,1,1,1,0,Papilionidae,Papilioninae,Leptocircini,Lepidoptera,Rhopalocera,6
17,ZMA.INS.1276504,ZMA.INS,1276504,Graphium,adonarensis,lycianus,"Toxopeus, 1951",1,male,"Moonen, J.J.M.",2016/02/06,Lepidoptera,PreservedSpecimen,WholeOrganism,yes,1,1,1,0,Papilionidae,Papilioninae,Leptocircini,Lepidoptera,Rhopalocera,6
18,ZMA.INS.1276505,ZMA.INS,1276505,Graphium,adonarensis,lycianus,"Toxopeus, 1951",1,female,"Moonen, J.J.M.",2016/02/06,Lepidoptera,PreservedSpecimen,WholeOrganism,yes,1,1,1,0,Papilionidae,Papilioninae,Leptocircini,Lepidoptera,Rhopalocera,6
19,ZMA.INS.1276510,ZMA.INS,1276510,Graphium,adonarensis,lycianus,"Toxopeus, 1951",1,male,"Moonen, J.J.M.",2016/02/06,Lepidoptera,PreservedSpecimen,WholeOrganism,yes,1,1,1,0,Papilionidae,Papilioninae,Leptocircini,Lepidoptera,Rhopalocera,6
20,ZMA.INS.1276519,ZMA.INS,1276519,Graphium,adonarensis,lycianus,"Toxopeus, 1951",1,male,"Moonen, J.J.M.",2016/02/06,Lepidoptera,PreservedSpecimen,WholeOrganism,yes,1,1,1,0,Papilionidae,Papilioninae,Leptocircini,Lepidoptera,Rhopalocera,6
21,ZMA.INS.1276529,ZMA.INS,1276529,Graphium,adonarensis,lycianus,"Toxopeus, 1951",1,male,"Moonen, J.J.M.",2016/02/06,Lepidoptera,PreservedSpecimen,WholeOrganism,yes,1,1,1,0,Papilionidae,Papilioninae,Leptocircini,Lepidoptera,Rhopalocera,6
22,ZMA.INS.1276530,ZMA.INS,1276530,Graphium,adonarensis,lycianus,"Toxopeus, 1951",1,male,"Moonen, J.J.M.",2016/02/06,Lepidoptera,PreservedSpecimen,WholeOrganism,yes,1,1,1,0,Papilionidae,Papilioninae,Leptocircini,Lepidoptera,Rhopalocera,6
23,ZMA.INS.1276551,ZMA.INS,1276551,Graphium,adonarensis,lycianus,"Toxopeus, 1951",1,male,"Moonen, J.J.M.",2016/02/06,Lepidoptera,PreservedSpecimen,WholeOrganism,yes,1,1,1,0,Papilionidae,Papilioninae,Leptocircini,Lepidoptera,Rhopalocera,6
24,ZMA.INS.1276561,ZMA.INS,1276561,Graphium,adonarensis,lycianus,"Toxopeus, 1951",1,male,"Moonen, J.J.M.",2016/02/06,Lepidoptera,PreservedSpecimen,WholeOrganism,yes,1,1,1,0,Papilionidae,Papilioninae,Leptocircini,Lepidoptera,Rhopalocera,6
25,ZMA.INS.1276564,ZMA.INS,1276564,Graphium,adonarensis,lycianus,"Toxopeus, 1951",1,male,"Moonen, J.J.M.",2016/02/06,Lepidoptera,PreservedSpecimen,WholeOrganism,yes,1,1,1,0,Papilionidae,Papilioninae,Leptocircini,Lepidoptera,Rhopalocera,6
26,ZMA.INS.1276572,ZMA.INS,1276572,Graphium,adonarensis,lycianus,"Toxopeus, 1951",1,male,"Moonen, J.J.M.",2016/02/07,Lepidoptera,PreservedSpecimen,WholeOrganism,yes,1,1,1,0,Papilionidae,Papilioninae,Leptocircini,Lepidoptera,Rhopalocera,6
27,ZMA.INS.1276573,ZMA.INS,1276573,Graphium,adonarensis,lycianus,"Toxopeus, 1951",1,male,"Moonen, J.J.M.",2016/02/07,Lepidoptera,PreservedSpecimen,WholeOrganism,yes,1,1,1,0,Papilionidae,Papilioninae,Leptocircini,Lepidoptera,Rhopalocera,6
28,ZMA.INS.1276574,ZMA.INS,1276574,Graphium,adonarensis,lycianus,"Toxopeus, 1951",1,male,"Moonen, J.J.M.",2016/02/07,Lepidoptera,PreservedSpecimen,WholeOrganism,yes,1,1,1,0,Papilionidae,Papilioninae,Leptocircini,Lepidoptera,Rhopalocera,6
29,ZMA.INS.1276576,ZMA.INS,1276576,Graphium,adonarensis,lycianus,"Toxopeus, 1951",1,male,"Moonen, J.J.M.",2016/02/07,Lepidoptera,PreservedSpecimen,WholeOrganism,yes,1,1,1,0,Papilionidae,Papilioninae,Leptocircini,Lepidoptera,Rhopalocera,6
30,ZMA.INS.1276579,ZMA.INS,1276579,Graphium,adonarensis,lycianus,"Toxopeus, 1951",1,male,"Moonen, J.J.M.",2016/02/07,Lepidoptera,PreservedSpecimen,WholeOrganism,yes,1,1,1,0,Papilionidae,Papilioninae,Leptocircini,Lepidoptera,Rhopalocera,6
31,ZMA.INS.1276582,ZMA.INS,1276582,Graphium,adonarensis,lycianus,"Toxopeus, 1951",1,male,"Moonen, J.J.M.",2016/02/07,Lepidoptera,PreservedSpecimen,WholeOrganism,yes,1,1,1,0,Papilionidae,Papilioninae,Leptocircini,Lepidoptera,Rhopalocera,6
32,ZMA.INS.1276589,ZMA.INS,1276589,Graphium,adonarensis,lycianus,"Toxopeus, 1951",1,male,"Moonen, J.J.M.",2016/02/07,Lepidoptera,PreservedSpecimen,WholeOrganism,yes,1,1,1,0,Papilionidae,Papilioninae,Leptocircini,Lepidoptera,Rhopalocera,6
33,ZMA.INS.1276599,ZMA.INS,1276599,Graphium,adonarensis,lycianus,"Toxopeus, 1951",1,male,"Moonen, J.J.M.",2016/02/07,Lepidoptera,PreservedSpecimen,WholeOrganism,yes,1,1,1,0,Papilionidae,Papilioninae,Leptocircini,Lepidoptera,Rhopalocera,6
34,ZMA.INS.1276601,ZMA.INS,1276601,Graphium,adonarensis,lycianus,"Toxopeus, 1951",1,male,"Moonen, J.J.M.",2016/02/07,Lepidoptera,PreservedSpecimen,WholeOrganism,yes,1,1,1,0,Papilionidae,Papilioninae,Leptocircini,Lepidoptera,Rhopalocera,6
35,ZMA.INS.1276602,ZMA.INS,1276602,Graphium,adonarensis,lycianus,"Toxopeus, 1951",1,male,"Moonen, J.J.M.",2016/02/07,Lepidoptera,PreservedSpecimen,WholeOrganism,yes,1,1,1,0,Papilionidae,Papilioninae,Leptocircini,Lepidoptera,Rhopalocera,6
36,ZMA.INS.1276621,ZMA.INS,1276621,Graphium,adonarensis,lycianus,"Toxopeus, 1951",1,male,"Moonen, J.J.M.",2016/02/07,Lepidoptera,PreservedSpecimen,WholeOrganism,yes,1,1,1,0,Papilionidae,Papilioninae,Leptocircini,Lepidoptera,Rhopalocera,6
37,ZMA.INS.1276628,ZMA.INS,1276628,Graphium,adonarensis,lycianus,"Toxopeus, 1951",1,male,"Moonen, J.J.M.",2016/02/14,Lepidoptera,PreservedSpecimen,WholeOrganism,yes,1,1,1,0,Papilionidae,Papilioninae,Leptocircini,Lepidoptera,Rhopalocera,6
38,ZMA.INS.1276634,ZMA.INS,1276634,Graphium,adonarensis,lycianus,"Toxopeus, 1951",1,male,"Moonen, J.J.M.",2016/02/14,Lepidoptera,PreservedSpecimen,WholeOrganism,yes,1,1,1,0,Papilionidae,Papilioninae,Leptocircini,Lepidoptera,Rhopalocera,6
39,ZMA.INS.1276637,ZMA.INS,1276637,Graphium,adonarensis,lycianus,"Toxopeus, 1951",1,male,"Moonen, J.J.M.",2016/02/14,Lepidoptera,PreservedSpecimen,WholeOrganism,yes,1,1,1,0,Papilionidae,Papilioninae,Leptocircini,Lepidoptera,Rhopalocera,6
40,ZMA.INS.1276646,ZMA.INS,1276646,Graphium,adonarensis,lycianus,"Toxopeus, 1951",1,male,"Moonen, J.J.M.",2016/02/14,Lepidoptera,PreservedSpecimen,WholeOrganism,yes,1,1,1,0,Papilionidae,Papilioninae,Leptocircini,Lepidoptera,Rhopalocera,6
41,ZMA.INS.1276647,ZMA.INS,1276647,Graphium,adonarensis,lycianus,"Toxopeus, 1951",1,male,"Moonen, J.J.M.",2016/02/14,Lepidoptera,PreservedSpecimen,WholeOrganism,yes,1,1,1,0,Papilionidae,Papilioninae,Leptocircini,Lepidoptera,Rhopalocera,6
42,ZMA.INS.1276648,ZMA.INS,1276648,Graphium,adonarensis,lycianus,"Toxopeus, 1951",1,male,"Moonen, J.J.M.",2016/02/14,Lepidoptera,PreservedSpecimen,WholeOrganism,yes,1,1,1,0,Papilionidae,Papilioninae,Leptocircini,Lepidoptera,Rhopalocera,6
43,ZMA.INS.1276658,ZMA.INS,1276658,Graphium,adonarensis,lycianus,"Toxopeus, 1951",1,male,"Moonen, J.J.M.",2016/02/14,Lepidoptera,PreservedSpecimen,WholeOrganism,yes,1,1,1,0,Papilionidae,Papilioninae,Leptocircini,Lepidoptera,Rhopalocera,6
44,ZMA.INS.1276660,ZMA.INS,1276660,Graphium,adonarensis,lycianus,"Toxopeus, 1951",1,male,"Moonen, J.J.M.",2016/02/14,Lepidoptera,PreservedSpecimen,WholeOrganism,yes,1,1,1,0,Papilionidae,Papilioninae,Leptocircini,Lepidoptera,Rhopalocera,6
45,ZMA.INS.1276669,ZMA.INS,1276669,Graphium,adonarensis,lycianus,"Toxopeus, 1951",1,male,"Moonen, J.J.M.",2016/02/14,Lepidoptera,PreservedSpecimen,WholeOrganism,yes,1,1,1,0,Papilionidae,Papilioninae,Leptocircini,Lepidoptera,Rhopalocera,6
46,ZMA.INS.1276507,ZMA.INS,1276507,Graphium,agamemnon,agamemnon,"Linnaeus, 1758",1,male,"Moonen, J.J.M.",2016/02/06,Lepidoptera,PreservedSpecimen,WholeOrganism,yes,1,1,1,0,Papilionidae,Papilioninae,Leptocircini,Lepidoptera,Rhopalocera,6
47,ZMA.INS.1276559,ZMA.INS,1276559,Graphium,agamemnon,agamemnon,"Linnaeus, 1758",1,male,"Moonen, J.J.M.",2016/02/06,Lepidoptera,PreservedSpecimen,WholeOrganism,yes,1,1,1,0,Papilionidae,Papilioninae,Leptocircini,Lepidoptera,Rhopalocera,6
48,ZMA.INS.1276568,ZMA.INS,1276568,Graphium,agamemnon,agamemnon,"Linnaeus, 1758",1,male,"Moonen, J.J.M.",2016/02/06,Lepidoptera,PreservedSpecimen,WholeOrganism,yes,1,1,1,0,Papilionidae,Papilioninae,Leptocircini,Lepidoptera,Rhopalocera,6
49,ZMA.INS.1275574,ZMA.INS,1275574,Graphium,antiphates,javanicus,"Eimer, 1888",1,male,"Moonen, J.J.M.",2016/02/05,Lepidoptera,PreservedSpecimen,WholeOrganism,yes,1,1,1,0,Papilionidae,Papilioninae,Leptocircini,Lepidoptera,Rhopalocera,6
50,ZMA.INS.1276225,ZMA.INS,1276225,Graphium,antiphates,javanicus,"Eimer, 1888",1,male,"Moonen, J.J.M.",2016/02/06,Lepidoptera,PreservedSpecimen,WholeOrganism,yes,1,1,1,0,Papilionidae,Papilioninae,Leptocircini,Lepidoptera,Rhopalocera,6
51,ZMA.INS.1276229,ZMA.INS,1276229,Graphium,antiphates,javanicus,"Eimer, 1888",1,male,"Moonen, J.J.M.",2016/02/06,Lepidoptera,PreservedSpecimen,WholeOrganism,yes,1,1,1,0,Papilionidae,Papilioninae,Leptocircini,Lepidoptera,Rhopalocera,6
52,ZMA.INS.1276254,ZMA.INS,1276254,Graphium,antiphates,javanicus,"Eimer, 1888",1,male,"Moonen, J.J.M.",2016/02/06,Lepidoptera,PreservedSpecimen,WholeOrganism,yes,1,1,1,0,Papilionidae,Papilioninae,Leptocircini,Lepidoptera,Rhopalocera,6
53,ZMA.INS.1276334,ZMA.INS,1276334,Graphium,antiphates,javanicus,"Eimer, 1888",1,male,"Moonen, J.J.M.",2016/02/06,Lepidoptera,PreservedSpecimen,WholeOrganism,yes,1,1,1,0,Papilionidae,Papilioninae,Leptocircini,Lepidoptera,Rhopalocera,6
54,ZMA.INS.1276361,ZMA.INS,1276361,Graphium,antiphates,javanicus,"Eimer, 1888",1,male,"Moonen, J.J.M.",2016/02/06,Lepidoptera,PreservedSpecimen,WholeOrganism,yes,1,1,1,0,Papilionidae,Papilioninae,Leptocircini,Lepidoptera,Rhopalocera,6
55,ZMA.INS.1276423,ZMA.INS,1276423,Graphium,antiphates,javanicus,"Eimer, 1888",1,male,"Moonen, J.J.M.",2016/02/06,Lepidoptera,PreservedSpecimen,WholeOrganism,yes,1,1,1,0,Papilionidae,Papilioninae,Leptocircini,Lepidoptera,Rhopalocera,6
56,ZMA.INS.1276527,ZMA.INS,1276527,Graphium,antiphates,javanicus,"Eimer, 1888",1,male,"Moonen, J.J.M.",2016/02/06,Lepidoptera,PreservedSpecimen,WholeOrganism,yes,1,1,1,0,Papilionidae,Papilioninae,Leptocircini,Lepidoptera,Rhopalocera,6
57,ZMA.INS.1276567,ZMA.INS,1276567,Graphium,antiphates,javanicus,"Eimer, 1888",1,male,"Moonen, J.J.M.",2016/02/06,Lepidoptera,PreservedSpecimen,WholeOrganism,yes,1,1,1,0,Papilionidae,Papilioninae,Leptocircini,Lepidoptera,Rhopalocera,6
58,ZMA.INS.1276630,ZMA.INS,1276630,Graphium,antiphates,javanicus,"Eimer, 1888",1,male,"Moonen, J.J.M.",2016/02/14,Lepidoptera,PreservedSpecimen,WholeOrganism,yes,1,1,1,0,Papilionidae,Papilioninae,Leptocircini,Lepidoptera,Rhopalocera,6
59,ZMA.INS.1275534,ZMA.INS,1275534,Parantica,aspasia,aspasia,"Fabricius, 1787",1,,"Moonen, J.J.M.",2016/02/05,Lepidoptera,PreservedSpecimen,WholeOrganism,yes,1,1,1,0,Nymphalidae,Danainae,Danaini,Lepidoptera,Rhopalocera,6
60,ZMA.INS.1275551,ZMA.INS,1275551,Parantica,aspasia,aspasia,"Fabricius, 1787",1,,"Moonen, J.J.M.",2016/02/05,Lepidoptera,PreservedSpecimen,WholeOrganism,yes,1,1,1,0,Nymphalidae,Danainae,Danaini,Lepidoptera,Rhopalocera,6
61,ZMA.INS.1275573,ZMA.INS,1275573,Graphium,bathycles ,bathycles,"Zinken, 1831",1,male,"Moonen, J.J.M.",2016/02/05,Lepidoptera,PreservedSpecimen,WholeOrganism,yes,1,1,1,0,Papilionidae,Papilioninae,Leptocircini,Lepidoptera,Rhopalocera,6
62,ZMA.INS.1276414,ZMA.INS,1276414,Graphium,bathycles ,bathycles,"Zinken, 1831",1,male,"Moonen, J.J.M.",2016/02/06,Lepidoptera,PreservedSpecimen,WholeOrganism,yes,1,1,1,0,Papilionidae,Papilioninae,Leptocircini,Lepidoptera,Rhopalocera,6
63,ZMA.INS.1276420,ZMA.INS,1276420,Graphium,bathycles ,bathycles,"Zinken, 1831",1,male,"Moonen, J.J.M.",2016/02/06,Lepidoptera,PreservedSpecimen,WholeOrganism,yes,1,1,1,0,Papilionidae,Papilioninae,Leptocircini,Lepidoptera,Rhopalocera,6
64,ZMA.INS.1276432,ZMA.INS,1276432,Graphium,bathycles ,bathycles,"Zinken, 1831",1,male,"Moonen, J.J.M.",2016/02/06,Lepidoptera,PreservedSpecimen,WholeOrganism,yes,1,1,1,0,Papilionidae,Papilioninae,Leptocircini,Lepidoptera,Rhopalocera,6
65,ZMA.INS.1276433,ZMA.INS,1276433,Graphium,bathycles ,bathycles,"Zinken, 1831",1,male,"Moonen, J.J.M.",2016/02/06,Lepidoptera,PreservedSpecimen,WholeOrganism,yes,1,1,1,0,Papilionidae,Papilioninae,Leptocircini,Lepidoptera,Rhopalocera,6
66,ZMA.INS.1276524,ZMA.INS,1276524,Graphium,bathycles ,bathycles,"Zinken, 1831",1,male,"Moonen, J.J.M.",2016/02/06,Lepidoptera,PreservedSpecimen,WholeOrganism,yes,1,1,1,0,Papilionidae,Papilioninae,Leptocircini,Lepidoptera,Rhopalocera,6
67,ZMA.INS.1276565,ZMA.INS,1276565,Graphium,bathycles ,bathycles,"Zinken, 1831",1,male,"Moonen, J.J.M.",2016/02/06,Lepidoptera,PreservedSpecimen,WholeOrganism,yes,1,1,1,0,Papilionidae,Papilioninae,Leptocircini,Lepidoptera,Rhopalocera,6
68,ZMA.INS.1276575,ZMA.INS,1276575,Graphium,bathycles ,bathycles,"Zinken, 1831",1,male,"Moonen, J.J.M.",2016/02/07,Lepidoptera,PreservedSpecimen,WholeOrganism,yes,1,1,1,0,Papilionidae,Papilioninae,Leptocircini,Lepidoptera,Rhopalocera,6
69,ZMA.INS.1276618,ZMA.INS,1276618,Graphium,bathycles ,bathycles,"Zinken, 1831",1,male,"Moonen, J.J.M.",2016/02/07,Lepidoptera,PreservedSpecimen,WholeOrganism,yes,1,1,1,0,Papilionidae,Papilioninae,Leptocircini,Lepidoptera,Rhopalocera,6
70,ZMA.INS.1276366,ZMA.INS,1276366,Graphium,cf. evemon,,"Boisduval, 1836",1,male,"Moonen, J.J.M.",2016/02/06,Lepidoptera,PreservedSpecimen,WholeOrganism,yes,1,1,1,0,Papilionidae,Papilioninae,Leptocircini,Lepidoptera,Rhopalocera,6
71,ZMA.INS.1275552,ZMA.INS,1275552,Danaus,chrysippus,,"Linnaeus, 1758",1,,"Moonen, J.J.M.",2016/02/05,Lepidoptera,PreservedSpecimen,WholeOrganism,yes,1,1,1,0,Nymphalidae,Danainae,Danaini,Lepidoptera,Rhopalocera,6
72,ZMA.INS.1275553,ZMA.INS,1275553,Danaus,chrysippus,,"Linnaeus, 1758",1,,"Moonen, J.J.M.",2016/02/05,Lepidoptera,PreservedSpecimen,WholeOrganism,yes,1,1,1,0,Nymphalidae,Danainae,Danaini,Lepidoptera,Rhopalocera,6
73,ZMA.INS.1275554,ZMA.INS,1275554,Danaus,chrysippus,,"Linnaeus, 1758",1,,"Moonen, J.J.M.",2016/02/05,Lepidoptera,PreservedSpecimen,WholeOrganism,yes,1,1,1,0,Nymphalidae,Danainae,Danaini,Lepidoptera,Rhopalocera,6
74,ZMA.INS.1275555,ZMA.INS,1275555,Danaus,chrysippus,,"Linnaeus, 1758",1,,"Moonen, J.J.M.",2016/02/05,Lepidoptera,PreservedSpecimen,WholeOrganism,yes,1,1,1,0,Nymphalidae,Danainae,Danaini,Lepidoptera,Rhopalocera,6
75,ZMA.INS.1275556,ZMA.INS,1275556,Danaus,chrysippus,,"Linnaeus, 1758",1,,"Moonen, J.J.M.",2016/02/05,Lepidoptera,PreservedSpecimen,WholeOrganism,yes,1,1,1,0,Nymphalidae,Danainae,Danaini,Lepidoptera,Rhopalocera,6
76,ZMA.INS.1275557,ZMA.INS,1275557,Danaus,chrysippus,,"Linnaeus, 1758",1,,"Moonen, J.J.M.",2016/02/05,Lepidoptera,PreservedSpecimen,WholeOrganism,yes,1,1,1,0,Nymphalidae,Danainae,Danaini,Lepidoptera,Rhopalocera,6
77,ZMA.INS.1275558,ZMA.INS,1275558,Danaus,chrysippus,,"Linnaeus, 1758",1,,"Moonen, J.J.M.",2016/02/05,Lepidoptera,PreservedSpecimen,WholeOrganism,yes,1,1,1,0,Nymphalidae,Danainae,Danaini,Lepidoptera,Rhopalocera,6
78,ZMA.INS.1275560,ZMA.INS,1275560,Danaus,chrysippus,,"Linnaeus, 1758",1,,"Moonen, J.J.M.",2016/02/05,Lepidoptera,PreservedSpecimen,WholeOrganism,yes,1,1,1,0,Nymphalidae,Danainae,Danaini,Lepidoptera,Rhopalocera,6
79,ZMA.INS.1275561,ZMA.INS,1275561,Danaus,chrysippus,,"Linnaeus, 1758",1,,"Moonen, J.J.M.",2016/02/05,Lepidoptera,PreservedSpecimen,WholeOrganism,yes,1,1,1,0,Nymphalidae,Danainae,Danaini,Lepidoptera,Rhopalocera,6
80,ZMA.INS.1275563,ZMA.INS,1275563,Danaus,chrysippus,,"Linnaeus, 1758",1,,"Moonen, J.J.M.",2016/02/05,Lepidoptera,PreservedSpecimen,WholeOrganism,yes,1,1,1,0,Nymphalidae,Danainae,Danaini,Lepidoptera,Rhopalocera,6
81,ZMA.INS.1275565,ZMA.INS,1275565,Danaus,chrysippus,,"Linnaeus, 1758",1,,"Moonen, J.J.M.",2016/02/05,Lepidoptera,PreservedSpecimen,WholeOrganism,yes,1,1,1,0,Nymphalidae,Danainae,Danaini,Lepidoptera,Rhopalocera,6
82,ZMA.INS.1275578,ZMA.INS,1275578,Danaus,chrysippus,,"Linnaeus, 1758",1, ,"Moonen, J.J.M.",2016/02/05,Lepidoptera,PreservedSpecimen,WholeOrganism,yes,1,1,1,0,Nymphalidae,Danainae,Danaini,Lepidoptera,Rhopalocera,6
83,ZMA.INS.1276223,ZMA.INS,1276223,Atrophaneura,coon,coon,"Fabricius, 1793",1,male,"Moonen, J.J.M.",2016/02/06,Lepidoptera,PreservedSpecimen,WholeOrganism,yes,1,1,1,0,Papilionidae,Papilioninae,Troidini,Lepidoptera,Rhopalocera,6
84,ZMA.INS.1276247,ZMA.INS,1276247,Atrophaneura,coon,coon,"Fabricius, 1793",1,female,"Moonen, J.J.M.",2016/02/06,Lepidoptera,PreservedSpecimen,WholeOrganism,yes,1,1,1,0,Papilionidae,Papilioninae,Troidini,Lepidoptera,Rhopalocera,6
85,ZMA.INS.1276250,ZMA.INS,1276250,Atrophaneura,coon,coon,"Fabricius, 1793",1,male,"Moonen, J.J.M.",2016/02/06,Lepidoptera,PreservedSpecimen,WholeOrganism,yes,1,1,1,0,Papilionidae,Papilioninae,Troidini,Lepidoptera,Rhopalocera,6
86,ZMA.INS.1276251,ZMA.INS,1276251,Atrophaneura,coon,coon,"Fabricius, 1793",1,female,"Moonen, J.J.M.",2016/02/06,Lepidoptera,PreservedSpecimen,WholeOrganism,yes,1,1,1,0,Papilionidae,Papilioninae,Troidini,Lepidoptera,Rhopalocera,6
87,ZMA.INS.1276255,ZMA.INS,1276255,Atrophaneura,coon,coon,"Fabricius, 1793",1,male,"Moonen, J.J.M.",2016/02/06,Lepidoptera,PreservedSpecimen,WholeOrganism,yes,1,1,1,0,Papilionidae,Papilioninae,Troidini,Lepidoptera,Rhopalocera,6
88,ZMA.INS.1276258,ZMA.INS,1276258,Atrophaneura,coon,coon,"Fabricius, 1793",1,male,"Moonen, J.J.M.",2016/02/06,Lepidoptera,PreservedSpecimen,WholeOrganism,yes,1,1,1,0,Papilionidae,Papilioninae,Troidini,Lepidoptera,Rhopalocera,6
89,ZMA.INS.1276522,ZMA.INS,1276522,Atrophaneura,coon,coon,"Fabricius, 1793",1,male,"Moonen, J.J.M.",2016/02/06,Lepidoptera,PreservedSpecimen,WholeOrganism,yes,1,1,1,0,Papilionidae,Papilioninae,Troidini,Lepidoptera,Rhopalocera,6
90,ZMA.INS.1276540,ZMA.INS,1276540,Atrophaneura,coon,coon,"Fabricius, 1793",1,male,"Moonen, J.J.M.",2016/02/06,Lepidoptera,PreservedSpecimen,WholeOrganism,yes,1,1,1,0,Papilionidae,Papilioninae,Troidini,Lepidoptera,Rhopalocera,6
91,ZMA.INS.1276593,ZMA.INS,1276593,Atrophaneura,coon,coon,"Fabricius, 1793",1,male,"Moonen, J.J.M.",2016/02/07,Lepidoptera,PreservedSpecimen,WholeOrganism,yes,1,1,1,0,Papilionidae,Papilioninae,Troidini,Lepidoptera,Rhopalocera,6
92,ZMA.INS.1276598,ZMA.INS,1276598,Atrophaneura,coon,coon,"Fabricius, 1793",1,male,"Moonen, J.J.M.",2016/02/07,Lepidoptera,PreservedSpecimen,WholeOrganism,yes,1,1,1,0,Papilionidae,Papilioninae,Troidini,Lepidoptera,Rhopalocera,6
93,ZMA.INS.1276615,ZMA.INS,1276615,Atrophaneura,coon,coon,"Fabricius, 1793",1,male,"Moonen, J.J.M.",2016/02/07,Lepidoptera,PreservedSpecimen,WholeOrganism,yes,1,1,1,0,Papilionidae,Papilioninae,Troidini,Lepidoptera,Rhopalocera,6
94,ZMA.INS.1276363,ZMA.INS,1276363,Lamproptera,curius,curius,"Fabricius, 1787",1,male,"Moonen, J.J.M.",2016/02/06,Lepidoptera,PreservedSpecimen,WholeOrganism,yes,1,1,1,0,Papilionidae,Papilioninae,Leptocircini,Lepidoptera,Rhopalocera,6
95,ZMA.INS.1276607,ZMA.INS,1276607,Lamproptera,curius,curius,"Fabricius, 1787",1,male,"Moonen, J.J.M.",2016/02/07,Lepidoptera,PreservedSpecimen,WholeOrganism,yes,1,1,1,0,Papilionidae,Papilioninae,Leptocircini,Lepidoptera,Rhopalocera,6
96,ZMA.INS.1276651,ZMA.INS,1276651,Lamproptera,curius,curius,"Fabricius, 1787",1,male,"Moonen, J.J.M.",2016/02/14,Lepidoptera,PreservedSpecimen,WholeOrganism,yes,1,1,1,0,Papilionidae,Papilioninae,Leptocircini,Lepidoptera,Rhopalocera,6
97,ZMA.INS.1275543,ZMA.INS,1275543,Papilio,demolion,demolion,"Cramer, 1776",0,male,"Moonen, J.J.M.",2016/02/05,Lepidoptera,PreservedSpecimen,WholeOrganism,yes,1,1,1,0,Papilionidae,Papilioninae,Papilionini,Lepidoptera,Rhopalocera,6
98,ZMA.INS.1275544,ZMA.INS,1275544,Papilio,demolion,demolion,"Cramer, 1776",0,male,"Moonen, J.J.M.",2016/02/05,Lepidoptera,PreservedSpecimen,WholeOrganism,yes,1,1,1,0,Papilionidae,Papilioninae,Papilionini,Lepidoptera,Rhopalocera,6
99,ZMA.INS.1275546,ZMA.INS,1275546,Papilio,demolion,demolion,"Cramer, 1776",0,male,"Moonen, J.J.M.",2016/02/05,Lepidoptera,PreservedSpecimen,WholeOrganism,yes,1,1,1,0,Papilionidae,Papilioninae,Papilionini,Lepidoptera,Rhopalocera,6
100,ZMA.INS.1275550,ZMA.INS,1275550,Papilio,demolion,demolion,"Cramer, 1776",0,male,"Moonen, J.J.M.",2016/02/05,Lepidoptera,PreservedSpecimen,WholeOrganism,yes,1,1,1,0,Papilionidae,Papilioninae,Papilionini,Lepidoptera,Rhopalocera,6
101,ZMA.INS.1275567,ZMA.INS,1275567,Papilio,demolion,demolion,"Cramer, 1776",0,male,"Moonen, J.J.M.",2016/02/05,Lepidoptera,PreservedSpecimen,WholeOrganism,yes,1,1,1,0,Papilionidae,Papilioninae,Papilionini,Lepidoptera,Rhopalocera,6
102,ZMA.INS.1275568,ZMA.INS,1275568,Papilio,demolion,demolion,"Cramer, 1776",0,male,"Moonen, J.J.M.",2016/02/05,Lepidoptera,PreservedSpecimen,WholeOrganism,yes,1,1,1,0,Papilionidae,Papilioninae,Papilionini,Lepidoptera,Rhopalocera,6
103,ZMA.INS.1275570,ZMA.INS,1275570,Papilio,demolion,demolion,"Cramer, 1776",0,male,"Moonen, J.J.M.",2016/02/05,Lepidoptera,PreservedSpecimen,WholeOrganism,yes,1,1,1,0,Papilionidae,Papilioninae,Papilionini,Lepidoptera,Rhopalocera,6
104,ZMA.INS.1276227,ZMA.INS,1276227,Papilio,demolion,demolion,"Cramer, 1776",0,male,"Moonen, J.J.M.",2016/02/06,Lepidoptera,PreservedSpecimen,WholeOrganism,yes,1,1,1,0,Papilionidae,Papilioninae,Papilionini,Lepidoptera,Rhopalocera,6
105,ZMA.INS.1276252,ZMA.INS,1276252,Papilio,demolion,demolion,"Cramer, 1776",0,female,"Moonen, J.J.M.",2016/02/06,Lepidoptera,PreservedSpecimen,WholeOrganism,yes,1,1,1,0,Papilionidae,Papilioninae,Papilionini,Lepidoptera,Rhopalocera,6
106,ZMA.INS.1276338,ZMA.INS,1276338,Papilio,demolion,demolion,"Cramer, 1776",0,male,"Moonen, J.J.M.",2016/02/06,Lepidoptera,PreservedSpecimen,WholeOrganism,yes,1,1,1,0,Papilionidae,Papilioninae,Papilionini,Lepidoptera,Rhopalocera,6
107,ZMA.INS.1276373,ZMA.INS,1276373,Papilio,demolion,demolion,"Cramer, 1776",0,male,"Moonen, J.J.M.",2016/02/06,Lepidoptera,PreservedSpecimen,WholeOrganism,yes,1,1,1,0,Papilionidae,Papilioninae,Papilionini,Lepidoptera,Rhopalocera,6
108,ZMA.INS.1276401,ZMA.INS,1276401,Papilio,demolion,demolion,"Cramer, 1776",0,male,"Moonen, J.J.M.",2016/02/06,Lepidoptera,PreservedSpecimen,WholeOrganism,yes,1,1,1,0,Papilionidae,Papilioninae,Papilionini,Lepidoptera,Rhopalocera,6
109,ZMA.INS.1276429,ZMA.INS,1276429,Papilio,demolion,demolion,"Cramer, 1776",0,male,"Moonen, J.J.M.",2016/02/06,Lepidoptera,PreservedSpecimen,WholeOrganism,yes,1,1,1,0,Papilionidae,Papilioninae,Papilionini,Lepidoptera,Rhopalocera,6
110,ZMA.INS.1276500,ZMA.INS,1276500,Papilio,demolion,demolion,"Cramer, 1776",0,male,"Moonen, J.J.M.",2016/02/06,Lepidoptera,PreservedSpecimen,WholeOrganism,yes,1,1,1,0,Papilionidae,Papilioninae,Papilionini,Lepidoptera,Rhopalocera,6
111,ZMA.INS.1276516,ZMA.INS,1276516,Papilio,demolion,demolion,"Cramer, 1776",0,male,"Moonen, J.J.M.",2016/02/06,Lepidoptera,PreservedSpecimen,WholeOrganism,yes,1,1,1,0,Papilionidae,Papilioninae,Papilionini,Lepidoptera,Rhopalocera,6
112,ZMA.INS.1276538,ZMA.INS,1276538,Papilio,demolion,demolion,"Cramer, 1776",0,male,"Moonen, J.J.M.",2016/02/06,Lepidoptera,PreservedSpecimen,WholeOrganism,yes,1,1,1,0,Papilionidae,Papilioninae,Papilionini,Lepidoptera,Rhopalocera,6
113,ZMA.INS.1276543,ZMA.INS,1276543,Papilio,demolion,demolion,"Cramer, 1776",0,male,"Moonen, J.J.M.",2016/02/06,Lepidoptera,PreservedSpecimen,WholeOrganism,yes,1,1,1,0,Papilionidae,Papilioninae,Papilionini,Lepidoptera,Rhopalocera,6
114,ZMA.INS.1276548,ZMA.INS,1276548,Papilio,demolion,demolion,"Cramer, 1776",0,male,"Moonen, J.J.M.",2016/02/06,Lepidoptera,PreservedSpecimen,WholeOrganism,yes,1,1,1,0,Papilionidae,Papilioninae,Papilionini,Lepidoptera,Rhopalocera,6
115,ZMA.INS.1276556,ZMA.INS,1276556,Papilio,demolion,demolion,"Cramer, 1776",0,male,"Moonen, J.J.M.",2016/02/06,Lepidoptera,PreservedSpecimen,WholeOrganism,yes,1,1,1,0,Papilionidae,Papilioninae,Papilionini,Lepidoptera,Rhopalocera,6
116,ZMA.INS.1276597,ZMA.INS,1276597,Papilio,demolion,demolion,"Cramer, 1776",0,female,"Moonen, J.J.M.",2016/02/07,Lepidoptera,PreservedSpecimen,WholeOrganism,yes,1,1,1,0,Papilionidae,Papilioninae,Papilionini,Lepidoptera,Rhopalocera,6
117,ZMA.INS.1276603,ZMA.INS,1276603,Papilio,demolion,demolion,"Cramer, 1776",0,male,"Moonen, J.J.M.",2016/02/07,Lepidoptera,PreservedSpecimen,WholeOrganism,yes,1,1,1,0,Papilionidae,Papilioninae,Papilionini,Lepidoptera,Rhopalocera,6
118,ZMA.INS.1276608,ZMA.INS,1276608,Papilio,demolion,demolion,"Cramer, 1776",0,male,"Moonen, J.J.M.",2016/02/07,Lepidoptera,PreservedSpecimen,WholeOrganism,yes,1,1,1,0,Papilionidae,Papilioninae,Papilionini,Lepidoptera,Rhopalocera,6
119,ZMA.INS.1276620,ZMA.INS,1276620,Papilio,demolion,demolion,"Cramer, 1776",0,female,"Moonen, J.J.M.",2016/02/07,Lepidoptera,PreservedSpecimen,WholeOrganism,yes,1,1,1,0,Papilionidae,Papilioninae,Papilionini,Lepidoptera,Rhopalocera,6
120,ZMA.INS.1276652,ZMA.INS,1276652,Papilio,demolion,demolion,"Cramer, 1776",0,male,"Moonen, J.J.M.",2016/02/14,Lepidoptera,PreservedSpecimen,WholeOrganism,yes,1,1,1,0,Papilionidae,Papilioninae,Papilionini,Lepidoptera,Rhopalocera,6
121,ZMA.INS.1276439,ZMA.INS,1276439,Graphium,doson,vulso,"Fruhstorfer, 1907",1,male,"Moonen, J.J.M.",2016/02/06,Lepidoptera,PreservedSpecimen,WholeOrganism,yes,1,1,1,0,Papilionidae,Papilioninae,Leptocircini,Lepidoptera,Rhopalocera,6
122,ZMA.INS.1276501,ZMA.INS,1276501,Graphium,doson,vulso,"Fruhstorfer, 1907",1,male,"Moonen, J.J.M.",2016/02/06,Lepidoptera,PreservedSpecimen,WholeOrganism,yes,1,1,1,0,Papilionidae,Papilioninae,Leptocircini,Lepidoptera,Rhopalocera,6
123,ZMA.INS.1276588,ZMA.INS,1276588,Graphium,doson,vulso,"Fruhstorfer, 1907",1,male,"Moonen, J.J.M.",2016/02/07,Lepidoptera,PreservedSpecimen,WholeOrganism,yes,1,1,1,0,Papilionidae,Papilioninae,Leptocircini,Lepidoptera,Rhopalocera,6
124,ZMA.INS.1276638,ZMA.INS,1276638,Graphium,doson,vulso,"Fruhstorfer, 1907",1,male,"Moonen, J.J.M.",2016/02/14,Lepidoptera,PreservedSpecimen,WholeOrganism,yes,1,1,1,0,Papilionidae,Papilioninae,Leptocircini,Lepidoptera,Rhopalocera,6
125,ZMA.INS.1276641,ZMA.INS,1276641,Graphium,doson,vulso,"Fruhstorfer, 1907",1,male,"Moonen, J.J.M.",2016/02/14,Lepidoptera,PreservedSpecimen,WholeOrganism,yes,1,1,1,0,Papilionidae,Papilioninae,Leptocircini,Lepidoptera,Rhopalocera,6
126,ZMA.INS.1276650,ZMA.INS,1276650,Graphium,eurypylus,daton,"Fruhstorfer, 1908",1,male,"Moonen, J.J.M.",2016/02/14,Lepidoptera,PreservedSpecimen,WholeOrganism,yes,1,1,1,0,Papilionidae,Papilioninae,Leptocircini,Lepidoptera,Rhopalocera,6
127,ZMA.INS.1276671,ZMA.INS,1276671,Graphium,eurypylus,daton,"Fruhstorfer, 1908",1,male,"Moonen, J.J.M.",2016/02/14,Lepidoptera,PreservedSpecimen,WholeOrganism,yes,1,1,1,0,Papilionidae,Papilioninae,Leptocircini,Lepidoptera,Rhopalocera,6
128,ZMA.INS.1276364,ZMA.INS,1276364,Graphium,evemon,evemon,"Boisduval, 1836",1,male,"Moonen, J.J.M.",2016/02/06,Lepidoptera,PreservedSpecimen,WholeOrganism,yes,1,1,1,0,Papilionidae,Papilioninae,Leptocircini,Lepidoptera,Rhopalocera,6
129,ZMA.INS.1276369,ZMA.INS,1276369,Graphium,evemon,evemon,"Boisduval, 1836",1,male,"Moonen, J.J.M.",2016/02/06,Lepidoptera,PreservedSpecimen,WholeOrganism,yes,1,1,1,0,Papilionidae,Papilioninae,Leptocircini,Lepidoptera,Rhopalocera,6
130,ZMA.INS.1276381,ZMA.INS,1276381,Graphium,evemon,evemon,"Boisduval, 1836",1,male,"Moonen, J.J.M.",2016/02/06,Lepidoptera,PreservedSpecimen,WholeOrganism,yes,1,1,1,0,Papilionidae,Papilioninae,Leptocircini,Lepidoptera,Rhopalocera,6
131,ZMA.INS.1276400,ZMA.INS,1276400,Graphium,evemon,evemon,"Boisduval, 1836",1,male,"Moonen, J.J.M.",2016/02/06,Lepidoptera,PreservedSpecimen,WholeOrganism,yes,1,1,1,0,Papilionidae,Papilioninae,Leptocircini,Lepidoptera,Rhopalocera,6
132,ZMA.INS.1276426,ZMA.INS,1276426,Graphium,evemon,evemon,"Boisduval, 1836",1,male,"Moonen, J.J.M.",2016/02/06,Lepidoptera,PreservedSpecimen,WholeOrganism,yes,1,1,1,0,Papilionidae,Papilioninae,Leptocircini,Lepidoptera,Rhopalocera,6
133,ZMA.INS.1276428,ZMA.INS,1276428,Graphium,evemon,evemon,"Boisduval, 1836",1,male,"Moonen, J.J.M.",2016/02/06,Lepidoptera,PreservedSpecimen,WholeOrganism,yes,1,1,1,0,Papilionidae,Papilioninae,Leptocircini,Lepidoptera,Rhopalocera,6
134,ZMA.INS.1276438,ZMA.INS,1276438,Graphium,evemon,evemon,"Boisduval, 1836",1,male,"Moonen, J.J.M.",2016/02/06,Lepidoptera,PreservedSpecimen,WholeOrganism,yes,1,1,1,0,Papilionidae,Papilioninae,Leptocircini,Lepidoptera,Rhopalocera,6
135,ZMA.INS.1276508,ZMA.INS,1276508,Graphium,evemon,evemon,"Boisduval, 1836",1,male,"Moonen, J.J.M.",2016/02/06,Lepidoptera,PreservedSpecimen,WholeOrganism,yes,1,1,1,0,Papilionidae,Papilioninae,Leptocircini,Lepidoptera,Rhopalocera,6
136,ZMA.INS.1276512,ZMA.INS,1276512,Graphium,evemon,evemon,"Boisduval, 1836",1,male,"Moonen, J.J.M.",2016/02/06,Lepidoptera,PreservedSpecimen,WholeOrganism,yes,1,1,1,0,Papilionidae,Papilioninae,Leptocircini,Lepidoptera,Rhopalocera,6
137,ZMA.INS.1276517,ZMA.INS,1276517,Graphium,evemon,evemon,"Boisduval, 1836",1,male,"Moonen, J.J.M.",2016/02/06,Lepidoptera,PreservedSpecimen,WholeOrganism,yes,1,1,1,0,Papilionidae,Papilioninae,Leptocircini,Lepidoptera,Rhopalocera,6
138,ZMA.INS.1276534,ZMA.INS,1276534,Graphium,evemon,evemon,"Boisduval, 1836",1,male,"Moonen, J.J.M.",2016/02/06,Lepidoptera,PreservedSpecimen,WholeOrganism,yes,1,1,1,0,Papilionidae,Papilioninae,Leptocircini,Lepidoptera,Rhopalocera,6
139,ZMA.INS.1276550,ZMA.INS,1276550,Graphium,evemon,evemon,"Boisduval, 1836",1,male,"Moonen, J.J.M.",2016/02/06,Lepidoptera,PreservedSpecimen,WholeOrganism,yes,1,1,1,0,Papilionidae,Papilioninae,Leptocircini,Lepidoptera,Rhopalocera,6
140,ZMA.INS.1276571,ZMA.INS,1276571,Graphium,evemon,evemon,"Boisduval, 1836",1,male,"Moonen, J.J.M.",2016/02/07,Lepidoptera,PreservedSpecimen,WholeOrganism,yes,1,1,1,0,Papilionidae,Papilioninae,Leptocircini,Lepidoptera,Rhopalocera,6
141,ZMA.INS.1276578,ZMA.INS,1276578,Graphium,evemon,evemon,"Boisduval, 1836",1,male,"Moonen, J.J.M.",2016/02/07,Lepidoptera,PreservedSpecimen,WholeOrganism,yes,1,1,1,0,Papilionidae,Papilioninae,Leptocircini,Lepidoptera,Rhopalocera,6
142,ZMA.INS.1276580,ZMA.INS,1276580,Graphium,evemon,evemon,"Boisduval, 1836",1,male,"Moonen, J.J.M.",2016/02/07,Lepidoptera,PreservedSpecimen,WholeOrganism,yes,1,1,1,0,Papilionidae,Papilioninae,Leptocircini,Lepidoptera,Rhopalocera,6
143,ZMA.INS.1276585,ZMA.INS,1276585,Graphium,evemon,evemon,"Boisduval, 1836",1,male,"Moonen, J.J.M.",2016/02/07,Lepidoptera,PreservedSpecimen,WholeOrganism,yes,1,1,1,0,Papilionidae,Papilioninae,Leptocircini,Lepidoptera,Rhopalocera,6
144,ZMA.INS.1276587,ZMA.INS,1276587,Graphium,evemon,evemon,"Boisduval, 1836",1,male,"Moonen, J.J.M.",2016/02/07,Lepidoptera,PreservedSpecimen,WholeOrganism,yes,1,1,1,0,Papilionidae,Papilioninae,Leptocircini,Lepidoptera,Rhopalocera,6
145,ZMA.INS.1276591,ZMA.INS,1276591,Graphium,evemon,evemon,"Boisduval, 1836",1,male,"Moonen, J.J.M.",2016/02/07,Lepidoptera,PreservedSpecimen,WholeOrganism,yes,1,1,1,0,Papilionidae,Papilioninae,Leptocircini,Lepidoptera,Rhopalocera,6
146,ZMA.INS.1276592,ZMA.INS,1276592,Graphium,evemon,evemon,"Boisduval, 1836",1,male,"Moonen, J.J.M.",2016/02/07,Lepidoptera,PreservedSpecimen,WholeOrganism,yes,1,1,1,0,Papilionidae,Papilioninae,Leptocircini,Lepidoptera,Rhopalocera,6
147,ZMA.INS.1276640,ZMA.INS,1276640,Graphium,evemon,evemon,"Boisduval, 1836",1,male,"Moonen, J.J.M.",2016/02/14,Lepidoptera,PreservedSpecimen,WholeOrganism,yes,1,1,1,0,Papilionidae,Papilioninae,Leptocircini,Lepidoptera,Rhopalocera,6
148,ZMA.INS.1276657,ZMA.INS,1276657,Graphium,evemon,evemon,"Boisduval, 1836",1,male,"Moonen, J.J.M.",2016/02/14,Lepidoptera,PreservedSpecimen,WholeOrganism,yes,1,1,1,0,Papilionidae,Papilioninae,Leptocircini,Lepidoptera,Rhopalocera,6
149,ZMA.INS.1276667,ZMA.INS,1276667,Graphium,evemon,evemon,"Boisduval, 1836",1,male,"Moonen, J.J.M.",2016/02/14,Lepidoptera,PreservedSpecimen,WholeOrganism,yes,1,1,1,0,Papilionidae,Papilioninae,Leptocircini,Lepidoptera,Rhopalocera,6
150,ZMA.INS.1276668,ZMA.INS,1276668,Graphium,evemon,evemon,"Boisduval, 1836",1,male,"Moonen, J.J.M.",2016/02/14,Lepidoptera,PreservedSpecimen,WholeOrganism,yes,1,1,1,0,Papilionidae,Papilioninae,Leptocircini,Lepidoptera,Rhopalocera,6
151,ZMA.INS.1275531,ZMA.INS,1275531,Danaus,genutia,,"Cramer, 1779",1,,"Moonen, J.J.M.",2016/02/05,Lepidoptera,PreservedSpecimen,WholeOrganism,yes,1,1,1,0,Nymphalidae,Danainae,Danaini,Lepidoptera,Rhopalocera,6
152,ZMA.INS.1275532,ZMA.INS,1275532,Danaus,genutia,,"Cramer, 1779",1,,"Moonen, J.J.M.",2016/02/05,Lepidoptera,PreservedSpecimen,WholeOrganism,yes,1,1,1,0,Nymphalidae,Danainae,Danaini,Lepidoptera,Rhopalocera,6
153,ZMA.INS.1275576,ZMA.INS,1275576,Danaus,genutia,,"Cramer, 1779",1, ,"Moonen, J.J.M.",2016/02/05,Lepidoptera,PreservedSpecimen,WholeOrganism,yes,1,1,1,0,Nymphalidae,Danainae,Danaini,Lepidoptera,Rhopalocera,6
154,ZMA.INS.1276218,ZMA.INS,1276218,Troides,helena,helena,"Linnaeus, 1758",1,male,"Moonen, J.J.M.",2016/02/05,Lepidoptera,PreservedSpecimen,WholeOrganism,yes,1,1,1,0,Papilionidae,Papilioninae,Troidini,Lepidoptera,Rhopalocera,6
155,ZMA.INS.1276224,ZMA.INS,1276224,Troides,helena,helena,"Linnaeus, 1758",1,male,"Moonen, J.J.M.",2016/02/06,Lepidoptera,PreservedSpecimen,WholeOrganism,yes,1,1,1,0,Papilionidae,Papilioninae,Troidini,Lepidoptera,Rhopalocera,6
156,ZMA.INS.1276226,ZMA.INS,1276226,Troides,helena,helena,"Linnaeus, 1758",1,male,"Moonen, J.J.M.",2016/02/06,Lepidoptera,PreservedSpecimen,WholeOrganism,yes,1,1,1,0,Papilionidae,Papilioninae,Troidini,Lepidoptera,Rhopalocera,6
157,ZMA.INS.1276228,ZMA.INS,1276228,Troides,helena,helena,"Linnaeus, 1758",1,male,"Moonen, J.J.M.",2016/02/06,Lepidoptera,PreservedSpecimen,WholeOrganism,yes,1,1,1,0,Papilionidae,Papilioninae,Troidini,Lepidoptera,Rhopalocera,6
158,ZMA.INS.1276231,ZMA.INS,1276231,Troides,helena,helena,"Linnaeus, 1758",1,male,"Moonen, J.J.M.",2016/02/06,Lepidoptera,PreservedSpecimen,WholeOrganism,yes,1,1,1,0,Papilionidae,Papilioninae,Troidini,Lepidoptera,Rhopalocera,6
159,ZMA.INS.1276237,ZMA.INS,1276237,Troides,helena,helena,"Linnaeus, 1758",1,male,"Moonen, J.J.M.",2016/02/06,Lepidoptera,PreservedSpecimen,WholeOrganism,yes,1,1,1,0,Papilionidae,Papilioninae,Troidini,Lepidoptera,Rhopalocera,6
160,ZMA.INS.1276239,ZMA.INS,1276239,Troides,helena,helena,"Linnaeus, 1758",1,male,"Moonen, J.J.M.",2016/02/06,Lepidoptera,PreservedSpecimen,WholeOrganism,yes,1,1,1,0,Papilionidae,Papilioninae,Troidini,Lepidoptera,Rhopalocera,6
161,ZMA.INS.1276240,ZMA.INS,1276240,Troides,helena,helena,"Linnaeus, 1758",1,male,"Moonen, J.J.M.",2016/02/06,Lepidoptera,PreservedSpecimen,WholeOrganism,yes,1,1,1,0,Papilionidae,Papilioninae,Troidini,Lepidoptera,Rhopalocera,6
162,ZMA.INS.1276242,ZMA.INS,1276242,Troides,helena,helena,"Linnaeus, 1758",1,male,"Moonen, J.J.M.",2016/02/06,Lepidoptera,PreservedSpecimen,WholeOrganism,yes,1,1,1,0,Papilionidae,Papilioninae,Troidini,Lepidoptera,Rhopalocera,6
163,ZMA.INS.1276243,ZMA.INS,1276243,Troides,helena,helena,"Linnaeus, 1758",1,male,"Moonen, J.J.M.",2016/02/06,Lepidoptera,PreservedSpecimen,WholeOrganism,yes,1,1,1,0,Papilionidae,Papilioninae,Troidini,Lepidoptera,Rhopalocera,6
164,ZMA.INS.1276248,ZMA.INS,1276248,Troides,helena,helena,"Linnaeus, 1758",1,male,"Moonen, J.J.M.",2016/02/06,Lepidoptera,PreservedSpecimen,WholeOrganism,yes,1,1,1,0,Papilionidae,Papilioninae,Troidini,Lepidoptera,Rhopalocera,6
165,ZMA.INS.1276257,ZMA.INS,1276257,Troides,helena,helena,"Linnaeus, 1758",1,male,"Moonen, J.J.M.",2016/02/06,Lepidoptera,PreservedSpecimen,WholeOrganism,yes,1,1,1,0,Papilionidae,Papilioninae,Troidini,Lepidoptera,Rhopalocera,6
166,ZMA.INS.1275540,ZMA.INS,1275540,Papilio,helenus ,enganius,"Doherty, 1891",0,male,"Moonen, J.J.M.",2016/02/05,Lepidoptera,PreservedSpecimen,WholeOrganism,yes,1,1,1,0,Papilionidae,Papilioninae,Papilionini,Lepidoptera,Rhopalocera,6
167,ZMA.INS.1275541,ZMA.INS,1275541,Papilio,helenus ,enganius,"Doherty, 1891",0,male,"Moonen, J.J.M.",2016/02/05,Lepidoptera,PreservedSpecimen,WholeOrganism,yes,1,1,1,0,Papilionidae,Papilioninae,Papilionini,Lepidoptera,Rhopalocera,6
168,ZMA.INS.1275542,ZMA.INS,1275542,Papilio,helenus ,enganius,"Doherty, 1891",0,male,"Moonen, J.J.M.",2016/02/05,Lepidoptera,PreservedSpecimen,WholeOrganism,yes,1,1,1,0,Papilionidae,Papilioninae,Papilionini,Lepidoptera,Rhopalocera,6
169,ZMA.INS.1275547,ZMA.INS,1275547,Papilio,helenus ,enganius,"Doherty, 1891",0,male,"Moonen, J.J.M.",2016/02/05,Lepidoptera,PreservedSpecimen,WholeOrganism,yes,1,1,1,0,Papilionidae,Papilioninae,Papilionini,Lepidoptera,Rhopalocera,6
170,ZMA.INS.1275572,ZMA.INS,1275572,Papilio,helenus ,enganius,"Doherty, 1891",0,male,"Moonen, J.J.M.",2016/02/05,Lepidoptera,PreservedSpecimen,WholeOrganism,yes,1,1,1,0,Papilionidae,Papilioninae,Papilionini,Lepidoptera,Rhopalocera,6
171,ZMA.INS.1276219,ZMA.INS,1276219,Papilio,helenus ,enganius,"Doherty, 1891",0,male,"Moonen, J.J.M.",2016/02/05,Lepidoptera,PreservedSpecimen,WholeOrganism,yes,1,1,1,0,Papilionidae,Papilioninae,Papilionini,Lepidoptera,Rhopalocera,6
172,ZMA.INS.1276233,ZMA.INS,1276233,Papilio,helenus ,enganius,"Doherty, 1891",0,male,"Moonen, J.J.M.",2016/02/06,Lepidoptera,PreservedSpecimen,WholeOrganism,yes,1,1,1,0,Papilionidae,Papilioninae,Papilionini,Lepidoptera,Rhopalocera,6
173,ZMA.INS.1276245,ZMA.INS,1276245,Papilio,helenus ,enganius,"Doherty, 1891",0,male,"Moonen, J.J.M.",2016/02/06,Lepidoptera,PreservedSpecimen,WholeOrganism,yes,1,1,1,0,Papilionidae,Papilioninae,Papilionini,Lepidoptera,Rhopalocera,6
174,ZMA.INS.1276249,ZMA.INS,1276249,Papilio,helenus ,enganius,"Doherty, 1891",0,male,"Moonen, J.J.M.",2016/02/06,Lepidoptera,PreservedSpecimen,WholeOrganism,yes,1,1,1,0,Papilionidae,Papilioninae,Papilionini,Lepidoptera,Rhopalocera,6
175,ZMA.INS.1276256,ZMA.INS,1276256,Papilio,helenus ,enganius,"Doherty, 1891",0,male,"Moonen, J.J.M.",2016/02/06,Lepidoptera,PreservedSpecimen,WholeOrganism,yes,1,1,1,0,Papilionidae,Papilioninae,Papilionini,Lepidoptera,Rhopalocera,6
176,ZMA.INS.1276325,ZMA.INS,1276325,Papilio,helenus ,enganius,"Doherty, 1891",0,male,"Moonen, J.J.M.",2016/02/06,Lepidoptera,PreservedSpecimen,WholeOrganism,yes,1,1,1,0,Papilionidae,Papilioninae,Papilionini,Lepidoptera,Rhopalocera,6
177,ZMA.INS.1276332,ZMA.INS,1276332,Papilio,helenus ,enganius,"Doherty, 1891",0,male,"Moonen, J.J.M.",2016/02/06,Lepidoptera,PreservedSpecimen,WholeOrganism,yes,1,1,1,0,Papilionidae,Papilioninae,Papilionini,Lepidoptera,Rhopalocera,6
178,ZMA.INS.1276348,ZMA.INS,1276348,Papilio,helenus ,enganius,"Doherty, 1891",0,male,"Moonen, J.J.M.",2016/02/06,Lepidoptera,PreservedSpecimen,WholeOrganism,yes,1,1,1,0,Papilionidae,Papilioninae,Papilionini,Lepidoptera,Rhopalocera,6
179,ZMA.INS.1276356,ZMA.INS,1276356,Papilio,helenus ,enganius,"Doherty, 1891",0,male,"Moonen, J.J.M.",2016/02/06,Lepidoptera,PreservedSpecimen,WholeOrganism,yes,1,1,1,0,Papilionidae,Papilioninae,Papilionini,Lepidoptera,Rhopalocera,6
180,ZMA.INS.1276379,ZMA.INS,1276379,Papilio,helenus ,enganius,"Doherty, 1891",0,male,"Moonen, J.J.M.",2016/02/06,Lepidoptera,PreservedSpecimen,WholeOrganism,yes,1,1,1,0,Papilionidae,Papilioninae,Papilionini,Lepidoptera,Rhopalocera,6
181,ZMA.INS.1276386,ZMA.INS,1276386,Papilio,helenus ,enganius,"Doherty, 1891",0,male,"Moonen, J.J.M.",2016/02/06,Lepidoptera,PreservedSpecimen,WholeOrganism,yes,1,1,1,0,Papilionidae,Papilioninae,Papilionini,Lepidoptera,Rhopalocera,6
182,ZMA.INS.1276389,ZMA.INS,1276389,Papilio,helenus ,enganius,"Doherty, 1891",0,male,"Moonen, J.J.M.",2016/02/06,Lepidoptera,PreservedSpecimen,WholeOrganism,yes,1,1,1,0,Papilionidae,Papilioninae,Papilionini,Lepidoptera,Rhopalocera,6
183,ZMA.INS.1276390,ZMA.INS,1276390,Papilio,helenus ,enganius,"Doherty, 1891",0,male,"Moonen, J.J.M.",2016/02/06,Lepidoptera,PreservedSpecimen,WholeOrganism,yes,1,1,1,0,Papilionidae,Papilioninae,Papilionini,Lepidoptera,Rhopalocera,6
184,ZMA.INS.1276395,ZMA.INS,1276395,Papilio,helenus ,enganius,"Doherty, 1891",0,male,"Moonen, J.J.M.",2016/02/06,Lepidoptera,PreservedSpecimen,WholeOrganism,yes,1,1,1,0,Papilionidae,Papilioninae,Papilionini,Lepidoptera,Rhopalocera,6
185,ZMA.INS.1276399,ZMA.INS,1276399,Papilio,helenus ,enganius,"Doherty, 1891",0,male,"Moonen, J.J.M.",2016/02/06,Lepidoptera,PreservedSpecimen,WholeOrganism,yes,1,1,1,0,Papilionidae,Papilioninae,Papilionini,Lepidoptera,Rhopalocera,6
186,ZMA.INS.1276403,ZMA.INS,1276403,Papilio,helenus ,enganius,"Doherty, 1891",0,male,"Moonen, J.J.M.",2016/02/06,Lepidoptera,PreservedSpecimen,WholeOrganism,yes,1,1,1,0,Papilionidae,Papilioninae,Papilionini,Lepidoptera,Rhopalocera,6
187,ZMA.INS.1276405,ZMA.INS,1276405,Papilio,helenus ,enganius,"Doherty, 1891",0,male,"Moonen, J.J.M.",2016/02/06,Lepidoptera,PreservedSpecimen,WholeOrganism,yes,1,1,1,0,Papilionidae,Papilioninae,Papilionini,Lepidoptera,Rhopalocera,6
188,ZMA.INS.1276406,ZMA.INS,1276406,Papilio,helenus ,enganius,"Doherty, 1891",0,male,"Moonen, J.J.M.",2016/02/06,Lepidoptera,PreservedSpecimen,WholeOrganism,yes,1,1,1,0,Papilionidae,Papilioninae,Papilionini,Lepidoptera,Rhopalocera,6
189,ZMA.INS.1276421,ZMA.INS,1276421,Papilio,helenus ,enganius,"Doherty, 1891",0,male,"Moonen, J.J.M.",2016/02/06,Lepidoptera,PreservedSpecimen,WholeOrganism,yes,1,1,1,0,Papilionidae,Papilioninae,Papilionini,Lepidoptera,Rhopalocera,6
190,ZMA.INS.1276427,ZMA.INS,1276427,Papilio,helenus ,enganius,"Doherty, 1891",0,male,"Moonen, J.J.M.",2016/02/06,Lepidoptera,PreservedSpecimen,WholeOrganism,yes,1,1,1,0,Papilionidae,Papilioninae,Papilionini,Lepidoptera,Rhopalocera,6
191,ZMA.INS.1276437,ZMA.INS,1276437,Papilio,helenus ,enganius,"Doherty, 1891",0,male,"Moonen, J.J.M.",2016/02/06,Lepidoptera,PreservedSpecimen,WholeOrganism,yes,1,1,1,0,Papilionidae,Papilioninae,Papilionini,Lepidoptera,Rhopalocera,6
192,ZMA.INS.1276499,ZMA.INS,1276499,Papilio,helenus ,enganius,"Doherty, 1891",0,male,"Moonen, J.J.M.",2016/02/06,Lepidoptera,PreservedSpecimen,WholeOrganism,yes,1,1,1,0,Papilionidae,Papilioninae,Papilionini,Lepidoptera,Rhopalocera,6
193,ZMA.INS.1276518,ZMA.INS,1276518,Papilio,helenus ,enganius,"Doherty, 1891",0,male,"Moonen, J.J.M.",2016/02/06,Lepidoptera,PreservedSpecimen,WholeOrganism,yes,1,1,1,0,Papilionidae,Papilioninae,Papilionini,Lepidoptera,Rhopalocera,6
194,ZMA.INS.1276528,ZMA.INS,1276528,Papilio,helenus ,enganius,"Doherty, 1891",0,male,"Moonen, J.J.M.",2016/02/06,Lepidoptera,PreservedSpecimen,WholeOrganism,yes,1,1,1,0,Papilionidae,Papilioninae,Papilionini,Lepidoptera,Rhopalocera,6
195,ZMA.INS.1276531,ZMA.INS,1276531,Papilio,helenus ,enganius,"Doherty, 1891",0,male,"Moonen, J.J.M.",2016/02/06,Lepidoptera,PreservedSpecimen,WholeOrganism,yes,1,1,1,0,Papilionidae,Papilioninae,Papilionini,Lepidoptera,Rhopalocera,6
196,ZMA.INS.1276535,ZMA.INS,1276535,Papilio,helenus ,enganius,"Doherty, 1891",0,male,"Moonen, J.J.M.",2016/02/06,Lepidoptera,PreservedSpecimen,WholeOrganism,yes,1,1,1,0,Papilionidae,Papilioninae,Papilionini,Lepidoptera,Rhopalocera,6
197,ZMA.INS.1276537,ZMA.INS,1276537,Papilio,helenus ,enganius,"Doherty, 1891",0,male,"Moonen, J.J.M.",2016/02/06,Lepidoptera,PreservedSpecimen,WholeOrganism,yes,1,1,1,0,Papilionidae,Papilioninae,Papilionini,Lepidoptera,Rhopalocera,6
198,ZMA.INS.1276545,ZMA.INS,1276545,Papilio,helenus ,enganius,"Doherty, 1891",0,male,"Moonen, J.J.M.",2016/02/06,Lepidoptera,PreservedSpecimen,WholeOrganism,yes,1,1,1,0,Papilionidae,Papilioninae,Papilionini,Lepidoptera,Rhopalocera,6
199,ZMA.INS.1276553,ZMA.INS,1276553,Papilio,helenus ,enganius,"Doherty, 1891",0,male,"Moonen, J.J.M.",2016/02/06,Lepidoptera,PreservedSpecimen,WholeOrganism,yes,1,1,1,0,Papilionidae,Papilioninae,Papilionini,Lepidoptera,Rhopalocera,6
200,ZMA.INS.1276557,ZMA.INS,1276557,Papilio,helenus ,enganius,"Doherty, 1891",0,male,"Moonen, J.J.M.",2016/02/06,Lepidoptera,PreservedSpecimen,WholeOrganism,yes,1,1,1,0,Papilionidae,Papilioninae,Papilionini,Lepidoptera,Rhopalocera,6
201,ZMA.INS.1276558,ZMA.INS,1276558,Papilio,helenus ,enganius,"Doherty, 1891",0,male,"Moonen, J.J.M.",2016/02/06,Lepidoptera,PreservedSpecimen,WholeOrganism,yes,1,1,1,0,Papilionidae,Papilioninae,Papilionini,Lepidoptera,Rhopalocera,6
202,ZMA.INS.1276560,ZMA.INS,1276560,Papilio,helenus ,enganius,"Doherty, 1891",0,male,"Moonen, J.J.M.",2016/02/06,Lepidoptera,PreservedSpecimen,WholeOrganism,yes,1,1,1,0,Papilionidae,Papilioninae,Papilionini,Lepidoptera,Rhopalocera,6
203,ZMA.INS.1276569,ZMA.INS,1276569,Papilio,helenus ,enganius,"Doherty, 1891",0,male,"Moonen, J.J.M.",2016/02/07,Lepidoptera,PreservedSpecimen,WholeOrganism,yes,1,1,1,0,Papilionidae,Papilioninae,Papilionini,Lepidoptera,Rhopalocera,6
204,ZMA.INS.1276570,ZMA.INS,1276570,Papilio,helenus ,enganius,"Doherty, 1891",0,male,"Moonen, J.J.M.",2016/02/07,Lepidoptera,PreservedSpecimen,WholeOrganism,yes,1,1,1,0,Papilionidae,Papilioninae,Papilionini,Lepidoptera,Rhopalocera,6
205,ZMA.INS.1276577,ZMA.INS,1276577,Papilio,helenus ,enganius,"Doherty, 1891",0,male,"Moonen, J.J.M.",2016/02/07,Lepidoptera,PreservedSpecimen,WholeOrganism,yes,1,1,1,0,Papilionidae,Papilioninae,Papilionini,Lepidoptera,Rhopalocera,6
206,ZMA.INS.1276581,ZMA.INS,1276581,Papilio,helenus ,enganius,"Doherty, 1891",0,male,"Moonen, J.J.M.",2016/02/07,Lepidoptera,PreservedSpecimen,WholeOrganism,yes,1,1,1,0,Papilionidae,Papilioninae,Papilionini,Lepidoptera,Rhopalocera,6
207,ZMA.INS.1276586,ZMA.INS,1276586,Papilio,helenus ,enganius,"Doherty, 1891",0,male,"Moonen, J.J.M.",2016/02/07,Lepidoptera,PreservedSpecimen,WholeOrganism,yes,1,1,1,0,Papilionidae,Papilioninae,Papilionini,Lepidoptera,Rhopalocera,6
208,ZMA.INS.1276590,ZMA.INS,1276590,Papilio,helenus ,enganius,"Doherty, 1891",0,male,"Moonen, J.J.M.",2016/02/07,Lepidoptera,PreservedSpecimen,WholeOrganism,yes,1,1,1,0,Papilionidae,Papilioninae,Papilionini,Lepidoptera,Rhopalocera,6
209,ZMA.INS.1276600,ZMA.INS,1276600,Papilio,helenus ,enganius,"Doherty, 1891",0,male,"Moonen, J.J.M.",2016/02/07,Lepidoptera,PreservedSpecimen,WholeOrganism,yes,1,1,1,0,Papilionidae,Papilioninae,Papilionini,Lepidoptera,Rhopalocera,6
210,ZMA.INS.1276606,ZMA.INS,1276606,Papilio,helenus ,enganius,"Doherty, 1891",0,male,"Moonen, J.J.M.",2016/02/07,Lepidoptera,PreservedSpecimen,WholeOrganism,yes,1,1,1,0,Papilionidae,Papilioninae,Papilionini,Lepidoptera,Rhopalocera,6
211,ZMA.INS.1276633,ZMA.INS,1276633,Papilio,helenus ,enganius,"Doherty, 1891",0,male,"Moonen, J.J.M.",2016/02/14,Lepidoptera,PreservedSpecimen,WholeOrganism,yes,1,1,1,0,Papilionidae,Papilioninae,Papilionini,Lepidoptera,Rhopalocera,6
212,ZMA.INS.1276639,ZMA.INS,1276639,Papilio,helenus ,enganius,"Doherty, 1891",0,male,"Moonen, J.J.M.",2016/02/14,Lepidoptera,PreservedSpecimen,WholeOrganism,yes,1,1,1,0,Papilionidae,Papilioninae,Papilionini,Lepidoptera,Rhopalocera,6
213,ZMA.INS.1276644,ZMA.INS,1276644,Papilio,helenus ,enganius,"Doherty, 1891",0,male,"Moonen, J.J.M.",2016/02/14,Lepidoptera,PreservedSpecimen,WholeOrganism,yes,1,1,1,0,Papilionidae,Papilioninae,Papilionini,Lepidoptera,Rhopalocera,6
214,ZMA.INS.1276654,ZMA.INS,1276654,Papilio,helenus ,enganius,"Doherty, 1891",0,male,"Moonen, J.J.M.",2016/02/14,Lepidoptera,PreservedSpecimen,WholeOrganism,yes,1,1,1,0,Papilionidae,Papilioninae,Papilionini,Lepidoptera,Rhopalocera,6
215,ZMA.INS.1276663,ZMA.INS,1276663,Papilio,helenus ,enganius,"Doherty, 1891",0,male,"Moonen, J.J.M.",2016/02/14,Lepidoptera,PreservedSpecimen,WholeOrganism,yes,1,1,1,0,Papilionidae,Papilioninae,Papilionini,Lepidoptera,Rhopalocera,6
216,ZMA.INS.1276664,ZMA.INS,1276664,Papilio,helenus ,enganius,"Doherty, 1891",0,male,"Moonen, J.J.M.",2016/02/14,Lepidoptera,PreservedSpecimen,WholeOrganism,yes,1,1,1,0,Papilionidae,Papilioninae,Papilionini,Lepidoptera,Rhopalocera,6
217,ZMA.INS.1275577,ZMA.INS,1275577,Idea,lynceus,,"Drury, 1773",1, ,"Moonen, J.J.M.",2016/02/05,Lepidoptera,PreservedSpecimen,WholeOrganism,yes,1,1,1,0,Nymphalidae,Danainae,Danaini,Lepidoptera,Rhopalocera,6
218,ZMA.INS.1276324,ZMA.INS,1276324,Graphium,macareus,macareus,"Godart, 1819",1,male,"Moonen, J.J.M.",2016/02/06,Lepidoptera,PreservedSpecimen,WholeOrganism,yes,1,1,1,0,Papilionidae,Papilioninae,Leptocircini,Lepidoptera,Rhopalocera,6
219,ZMA.INS.1276329,ZMA.INS,1276329,Graphium,macareus,macareus,"Godart, 1819",1,male,"Moonen, J.J.M.",2016/02/06,Lepidoptera,PreservedSpecimen,WholeOrganism,yes,1,1,1,0,Papilionidae,Papilioninae,Leptocircini,Lepidoptera,Rhopalocera,6
220,ZMA.INS.1276330,ZMA.INS,1276330,Graphium,macareus,macareus,"Godart, 1819",1,male,"Moonen, J.J.M.",2016/02/06,Lepidoptera,PreservedSpecimen,WholeOrganism,yes,1,1,1,0,Papilionidae,Papilioninae,Leptocircini,Lepidoptera,Rhopalocera,6
221,ZMA.INS.1276331,ZMA.INS,1276331,Graphium,macareus,macareus,"Godart, 1819",1,male,"Moonen, J.J.M.",2016/02/06,Lepidoptera,PreservedSpecimen,WholeOrganism,yes,1,1,1,0,Papilionidae,Papilioninae,Leptocircini,Lepidoptera,Rhopalocera,6
222,ZMA.INS.1276335,ZMA.INS,1276335,Graphium,macareus,macareus,"Godart, 1819",1,male,"Moonen, J.J.M.",2016/02/06,Lepidoptera,PreservedSpecimen,WholeOrganism,yes,1,1,1,0,Papilionidae,Papilioninae,Leptocircini,Lepidoptera,Rhopalocera,6
223,ZMA.INS.1276336,ZMA.INS,1276336,Graphium,macareus,macareus,"Godart, 1819",1,male,"Moonen, J.J.M.",2016/02/06,Lepidoptera,PreservedSpecimen,WholeOrganism,yes,1,1,1,0,Papilionidae,Papilioninae,Leptocircini,Lepidoptera,Rhopalocera,6
224,ZMA.INS.1276337,ZMA.INS,1276337,Graphium,macareus,macareus,"Godart, 1819",1,male,"Moonen, J.J.M.",2016/02/06,Lepidoptera,PreservedSpecimen,WholeOrganism,yes,1,1,1,0,Papilionidae,Papilioninae,Leptocircini,Lepidoptera,Rhopalocera,6
225,ZMA.INS.1276341,ZMA.INS,1276341,Graphium,macareus,macareus,"Godart, 1819",1,male,"Moonen, J.J.M.",2016/02/06,Lepidoptera,PreservedSpecimen,WholeOrganism,yes,1,1,1,0,Papilionidae,Papilioninae,Leptocircini,Lepidoptera,Rhopalocera,6
226,ZMA.INS.1276344,ZMA.INS,1276344,Graphium,macareus,macareus,"Godart, 1819",1,male,"Moonen, J.J.M.",2016/02/06,Lepidoptera,PreservedSpecimen,WholeOrganism,yes,1,1,1,0,Papilionidae,Papilioninae,Leptocircini,Lepidoptera,Rhopalocera,6
227,ZMA.INS.1276346,ZMA.INS,1276346,Graphium,macareus,macareus,"Godart, 1819",1,male,"Moonen, J.J.M.",2016/02/06,Lepidoptera,PreservedSpecimen,WholeOrganism,yes,1,1,1,0,Papilionidae,Papilioninae,Leptocircini,Lepidoptera,Rhopalocera,6
228,ZMA.INS.1276347,ZMA.INS,1276347,Graphium,macareus,macareus,"Godart, 1819",1,male,"Moonen, J.J.M.",2016/02/06,Lepidoptera,PreservedSpecimen,WholeOrganism,yes,1,1,1,0,Papilionidae,Papilioninae,Leptocircini,Lepidoptera,Rhopalocera,6
229,ZMA.INS.1276355,ZMA.INS,1276355,Graphium,macareus,macareus,"Godart, 1819",1,male,"Moonen, J.J.M.",2016/02/06,Lepidoptera,PreservedSpecimen,WholeOrganism,yes,1,1,1,0,Papilionidae,Papilioninae,Leptocircini,Lepidoptera,Rhopalocera,6
230,ZMA.INS.1276357,ZMA.INS,1276357,Graphium,macareus,macareus,"Godart, 1819",1,male,"Moonen, J.J.M.",2016/02/06,Lepidoptera,PreservedSpecimen,WholeOrganism,yes,1,1,1,0,Papilionidae,Papilioninae,Leptocircini,Lepidoptera,Rhopalocera,6
231,ZMA.INS.1276359,ZMA.INS,1276359,Graphium,macareus,macareus,"Godart, 1819",1,male,"Moonen, J.J.M.",2016/02/06,Lepidoptera,PreservedSpecimen,WholeOrganism,yes,1,1,1,0,Papilionidae,Papilioninae,Leptocircini,Lepidoptera,Rhopalocera,6
232,ZMA.INS.1276360,ZMA.INS,1276360,Graphium,macareus,macareus,"Godart, 1819",1,male,"Moonen, J.J.M.",2016/02/06,Lepidoptera,PreservedSpecimen,WholeOrganism,yes,1,1,1,0,Papilionidae,Papilioninae,Leptocircini,Lepidoptera,Rhopalocera,6
233,ZMA.INS.1276367,ZMA.INS,1276367,Graphium,macareus,macareus,"Godart, 1819",1,male,"Moonen, J.J.M.",2016/02/06,Lepidoptera,PreservedSpecimen,WholeOrganism,yes,1,1,1,0,Papilionidae,Papilioninae,Leptocircini,Lepidoptera,Rhopalocera,6
234,ZMA.INS.1276368,ZMA.INS,1276368,Graphium,macareus,macareus,"Godart, 1819",1,male,"Moonen, J.J.M.",2016/02/06,Lepidoptera,PreservedSpecimen,WholeOrganism,yes,1,1,1,0,Papilionidae,Papilioninae,Leptocircini,Lepidoptera,Rhopalocera,6
235,ZMA.INS.1276370,ZMA.INS,1276370,Graphium,macareus,macareus,"Godart, 1819",1,male,"Moonen, J.J.M.",2016/02/06,Lepidoptera,PreservedSpecimen,WholeOrganism,yes,1,1,1,0,Papilionidae,Papilioninae,Leptocircini,Lepidoptera,Rhopalocera,6
236,ZMA.INS.1276374,ZMA.INS,1276374,Graphium,macareus,macareus,"Godart, 1819",1,male,"Moonen, J.J.M.",2016/02/06,Lepidoptera,PreservedSpecimen,WholeOrganism,yes,1,1,1,0,Papilionidae,Papilioninae,Leptocircini,Lepidoptera,Rhopalocera,6
237,ZMA.INS.1276375,ZMA.INS,1276375,Graphium,macareus,macareus,"Godart, 1819",1,male,"Moonen, J.J.M.",2016/02/06,Lepidoptera,PreservedSpecimen,WholeOrganism,yes,1,1,1,0,Papilionidae,Papilioninae,Leptocircini,Lepidoptera,Rhopalocera,6
238,ZMA.INS.1276382,ZMA.INS,1276382,Graphium,macareus,macareus,"Godart, 1819",1,male,"Moonen, J.J.M.",2016/02/06,Lepidoptera,PreservedSpecimen,WholeOrganism,yes,1,1,1,0,Papilionidae,Papilioninae,Leptocircini,Lepidoptera,Rhopalocera,6
239,ZMA.INS.1276384,ZMA.INS,1276384,Graphium,macareus,macareus,"Godart, 1819",1,male,"Moonen, J.J.M.",2016/02/06,Lepidoptera,PreservedSpecimen,WholeOrganism,yes,1,1,1,0,Papilionidae,Papilioninae,Leptocircini,Lepidoptera,Rhopalocera,6
240,ZMA.INS.1276385,ZMA.INS,1276385,Graphium,macareus,macareus,"Godart, 1819",1,male,"Moonen, J.J.M.",2016/02/06,Lepidoptera,PreservedSpecimen,WholeOrganism,yes,1,1,1,0,Papilionidae,Papilioninae,Leptocircini,Lepidoptera,Rhopalocera,6
241,ZMA.INS.1276388,ZMA.INS,1276388,Graphium,macareus,macareus,"Godart, 1819",1,male,"Moonen, J.J.M.",2016/02/06,Lepidoptera,PreservedSpecimen,WholeOrganism,yes,1,1,1,0,Papilionidae,Papilioninae,Leptocircini,Lepidoptera,Rhopalocera,6
242,ZMA.INS.1276391,ZMA.INS,1276391,Graphium,macareus,macareus,"Godart, 1819",1,male,"Moonen, J.J.M.",2016/02/06,Lepidoptera,PreservedSpecimen,WholeOrganism,yes,1,1,1,0,Papilionidae,Papilioninae,Leptocircini,Lepidoptera,Rhopalocera,6
243,ZMA.INS.1276393,ZMA.INS,1276393,Graphium,macareus,macareus,"Godart, 1819",1,male,"Moonen, J.J.M.",2016/02/06,Lepidoptera,PreservedSpecimen,WholeOrganism,yes,1,1,1,0,Papilionidae,Papilioninae,Leptocircini,Lepidoptera,Rhopalocera,6
244,ZMA.INS.1276394,ZMA.INS,1276394,Graphium,macareus,macareus,"Godart, 1819",1,male,"Moonen, J.J.M.",2016/02/06,Lepidoptera,PreservedSpecimen,WholeOrganism,yes,1,1,1,0,Papilionidae,Papilioninae,Leptocircini,Lepidoptera,Rhopalocera,6
245,ZMA.INS.1276396,ZMA.INS,1276396,Graphium,macareus,macareus,"Godart, 1819",1,male,"Moonen, J.J.M.",2016/02/06,Lepidoptera,PreservedSpecimen,WholeOrganism,yes,1,1,1,0,Papilionidae,Papilioninae,Leptocircini,Lepidoptera,Rhopalocera,6
246,ZMA.INS.1276397,ZMA.INS,1276397,Graphium,macareus,macareus,"Godart, 1819",1,male,"Moonen, J.J.M.",2016/02/06,Lepidoptera,PreservedSpecimen,WholeOrganism,yes,1,1,1,0,Papilionidae,Papilioninae,Leptocircini,Lepidoptera,Rhopalocera,6
247,ZMA.INS.1276408,ZMA.INS,1276408,Graphium,macareus,macareus,"Godart, 1819",1,male,"Moonen, J.J.M.",2016/02/06,Lepidoptera,PreservedSpecimen,WholeOrganism,yes,1,1,1,0,Papilionidae,Papilioninae,Leptocircini,Lepidoptera,Rhopalocera,6
248,ZMA.INS.1276409,ZMA.INS,1276409,Graphium,macareus,macareus,"Godart, 1819",1,male,"Moonen, J.J.M.",2016/02/06,Lepidoptera,PreservedSpecimen,WholeOrganism,yes,1,1,1,0,Papilionidae,Papilioninae,Leptocircini,Lepidoptera,Rhopalocera,6
249,ZMA.INS.1276411,ZMA.INS,1276411,Graphium,macareus,macareus,"Godart, 1819",1,male,"Moonen, J.J.M.",2016/02/06,Lepidoptera,PreservedSpecimen,WholeOrganism,yes,1,1,1,0,Papilionidae,Papilioninae,Leptocircini,Lepidoptera,Rhopalocera,6
250,ZMA.INS.1276413,ZMA.INS,1276413,Graphium,macareus,macareus,"Godart, 1819",1,male,"Moonen, J.J.M.",2016/02/06,Lepidoptera,PreservedSpecimen,WholeOrganism,yes,1,1,1,0,Papilionidae,Papilioninae,Leptocircini,Lepidoptera,Rhopalocera,6
251,ZMA.INS.1276416,ZMA.INS,1276416,Graphium,macareus,macareus,"Godart, 1819",1,male,"Moonen, J.J.M.",2016/02/06,Lepidoptera,PreservedSpecimen,WholeOrganism,yes,1,1,1,0,Papilionidae,Papilioninae,Leptocircini,Lepidoptera,Rhopalocera,6
252,ZMA.INS.1276431,ZMA.INS,1276431,Graphium,macareus,macareus,"Godart, 1819",1,male,"Moonen, J.J.M.",2016/02/06,Lepidoptera,PreservedSpecimen,WholeOrganism,yes,1,1,1,0,Papilionidae,Papilioninae,Leptocircini,Lepidoptera,Rhopalocera,6
253,ZMA.INS.1276434,ZMA.INS,1276434,Graphium,macareus,macareus,"Godart, 1819",1,male,"Moonen, J.J.M.",2016/02/06,Lepidoptera,PreservedSpecimen,WholeOrganism,yes,1,1,1,0,Papilionidae,Papilioninae,Leptocircini,Lepidoptera,Rhopalocera,6
254,ZMA.INS.1276435,ZMA.INS,1276435,Graphium,macareus,macareus,"Godart, 1819",1,male,"Moonen, J.J.M.",2016/02/06,Lepidoptera,PreservedSpecimen,WholeOrganism,yes,1,1,1,0,Papilionidae,Papilioninae,Leptocircini,Lepidoptera,Rhopalocera,6
255,ZMA.INS.1276509,ZMA.INS,1276509,Graphium,macareus,macareus,"Godart, 1819",1,male,"Moonen, J.J.M.",2016/02/06,Lepidoptera,PreservedSpecimen,WholeOrganism,yes,1,1,1,0,Papilionidae,Papilioninae,Leptocircini,Lepidoptera,Rhopalocera,6
256,ZMA.INS.1276511,ZMA.INS,1276511,Graphium,macareus,macareus,"Godart, 1819",1,male,"Moonen, J.J.M.",2016/02/06,Lepidoptera,PreservedSpecimen,WholeOrganism,yes,1,1,1,0,Papilionidae,Papilioninae,Leptocircini,Lepidoptera,Rhopalocera,6
257,ZMA.INS.1276514,ZMA.INS,1276514,Graphium,macareus,macareus,"Godart, 1819",1,male,"Moonen, J.J.M.",2016/02/06,Lepidoptera,PreservedSpecimen,WholeOrganism,yes,1,1,1,0,Papilionidae,Papilioninae,Leptocircini,Lepidoptera,Rhopalocera,6
258,ZMA.INS.1276515,ZMA.INS,1276515,Graphium,macareus,macareus,"Godart, 1819",1,male,"Moonen, J.J.M.",2016/02/06,Lepidoptera,PreservedSpecimen,WholeOrganism,yes,1,1,1,0,Papilionidae,Papilioninae,Leptocircini,Lepidoptera,Rhopalocera,6
259,ZMA.INS.1276525,ZMA.INS,1276525,Graphium,macareus,macareus,"Godart, 1819",1,male,"Moonen, J.J.M.",2016/02/06,Lepidoptera,PreservedSpecimen,WholeOrganism,yes,1,1,1,0,Papilionidae,Papilioninae,Leptocircini,Lepidoptera,Rhopalocera,6
260,ZMA.INS.1276526,ZMA.INS,1276526,Graphium,macareus,macareus,"Godart, 1819",1,male,"Moonen, J.J.M.",2016/02/06,Lepidoptera,PreservedSpecimen,WholeOrganism,yes,1,1,1,0,Papilionidae,Papilioninae,Leptocircini,Lepidoptera,Rhopalocera,6
261,ZMA.INS.1276532,ZMA.INS,1276532,Graphium,macareus,macareus,"Godart, 1819",1,male,"Moonen, J.J.M.",2016/02/06,Lepidoptera,PreservedSpecimen,WholeOrganism,yes,1,1,1,0,Papilionidae,Papilioninae,Leptocircini,Lepidoptera,Rhopalocera,6
262,ZMA.INS.1276544,ZMA.INS,1276544,Graphium,macareus,macareus,"Godart, 1819",1,male,"Moonen, J.J.M.",2016/02/06,Lepidoptera,PreservedSpecimen,WholeOrganism,yes,1,1,1,0,Papilionidae,Papilioninae,Leptocircini,Lepidoptera,Rhopalocera,6
263,ZMA.INS.1276555,ZMA.INS,1276555,Graphium,macareus,macareus,"Godart, 1819",1,male,"Moonen, J.J.M.",2016/02/06,Lepidoptera,PreservedSpecimen,WholeOrganism,yes,1,1,1,0,Papilionidae,Papilioninae,Leptocircini,Lepidoptera,Rhopalocera,6
264,ZMA.INS.1276595,ZMA.INS,1276595,Graphium,macareus,macareus,"Godart, 1819",1,male,"Moonen, J.J.M.",2016/02/07,Lepidoptera,PreservedSpecimen,WholeOrganism,yes,1,1,1,0,Papilionidae,Papilioninae,Leptocircini,Lepidoptera,Rhopalocera,6
265,ZMA.INS.1276609,ZMA.INS,1276609,Graphium,macareus,macareus,"Godart, 1819",1,male,"Moonen, J.J.M.",2016/02/07,Lepidoptera,PreservedSpecimen,WholeOrganism,yes,1,1,1,0,Papilionidae,Papilioninae,Leptocircini,Lepidoptera,Rhopalocera,6
266,ZMA.INS.1276612,ZMA.INS,1276612,Graphium,macareus,macareus,"Godart, 1819",1,male,"Moonen, J.J.M.",2016/02/07,Lepidoptera,PreservedSpecimen,WholeOrganism,yes,1,1,1,0,Papilionidae,Papilioninae,Leptocircini,Lepidoptera,Rhopalocera,6
267,ZMA.INS.1276613,ZMA.INS,1276613,Graphium,macareus,macareus,"Godart, 1819",1,male,"Moonen, J.J.M.",2016/02/07,Lepidoptera,PreservedSpecimen,WholeOrganism,yes,1,1,1,0,Papilionidae,Papilioninae,Leptocircini,Lepidoptera,Rhopalocera,6
268,ZMA.INS.1276616,ZMA.INS,1276616,Graphium,macareus,macareus,"Godart, 1819",1,male,"Moonen, J.J.M.",2016/02/07,Lepidoptera,PreservedSpecimen,WholeOrganism,yes,1,1,1,0,Papilionidae,Papilioninae,Leptocircini,Lepidoptera,Rhopalocera,6
269,ZMA.INS.1276617,ZMA.INS,1276617,Graphium,macareus,macareus,"Godart, 1819",1,male,"Moonen, J.J.M.",2016/02/07,Lepidoptera,PreservedSpecimen,WholeOrganism,yes,1,1,1,0,Papilionidae,Papilioninae,Leptocircini,Lepidoptera,Rhopalocera,6
270,ZMA.INS.1276622,ZMA.INS,1276622,Graphium,macareus,macareus,"Godart, 1819",1,male,"Moonen, J.J.M.",2016/02/07,Lepidoptera,PreservedSpecimen,WholeOrganism,yes,1,1,1,0,Papilionidae,Papilioninae,Leptocircini,Lepidoptera,Rhopalocera,6
271,ZMA.INS.1276624,ZMA.INS,1276624,Graphium,macareus,macareus,"Godart, 1819",1,male,"Moonen, J.J.M.",2016/02/14,Lepidoptera,PreservedSpecimen,WholeOrganism,yes,1,1,1,0,Papilionidae,Papilioninae,Leptocircini,Lepidoptera,Rhopalocera,6
272,ZMA.INS.1276627,ZMA.INS,1276627,Graphium,macareus,macareus,"Godart, 1819",1,male,"Moonen, J.J.M.",2016/02/14,Lepidoptera,PreservedSpecimen,WholeOrganism,yes,1,1,1,0,Papilionidae,Papilioninae,Leptocircini,Lepidoptera,Rhopalocera,6
273,ZMA.INS.1276631,ZMA.INS,1276631,Graphium,macareus,macareus,"Godart, 1819",1,male,"Moonen, J.J.M.",2016/02/14,Lepidoptera,PreservedSpecimen,WholeOrganism,yes,1,1,1,0,Papilionidae,Papilioninae,Leptocircini,Lepidoptera,Rhopalocera,6
274,ZMA.INS.1276632,ZMA.INS,1276632,Graphium,macareus,macareus,"Godart, 1819",1,male,"Moonen, J.J.M.",2016/02/14,Lepidoptera,PreservedSpecimen,WholeOrganism,yes,1,1,1,0,Papilionidae,Papilioninae,Leptocircini,Lepidoptera,Rhopalocera,6
275,ZMA.INS.1276636,ZMA.INS,1276636,Graphium,macareus,macareus,"Godart, 1819",1,male,"Moonen, J.J.M.",2016/02/14,Lepidoptera,PreservedSpecimen,WholeOrganism,yes,1,1,1,0,Papilionidae,Papilioninae,Leptocircini,Lepidoptera,Rhopalocera,6
276,ZMA.INS.1276643,ZMA.INS,1276643,Graphium,macareus,macareus,"Godart, 1819",1,male,"Moonen, J.J.M.",2016/02/14,Lepidoptera,PreservedSpecimen,WholeOrganism,yes,1,1,1,0,Papilionidae,Papilioninae,Leptocircini,Lepidoptera,Rhopalocera,6
277,ZMA.INS.1276666,ZMA.INS,1276666,Graphium,macareus,macareus,"Godart, 1819",1,male,"Moonen, J.J.M.",2016/02/14,Lepidoptera,PreservedSpecimen,WholeOrganism,yes,1,1,1,0,Papilionidae,Papilioninae,Leptocircini,Lepidoptera,Rhopalocera,6
278,ZMA.INS.1276672,ZMA.INS,1276672,Graphium,macareus,macareus,"Godart, 1819",1,male,"Moonen, J.J.M.",2016/02/14,Lepidoptera,PreservedSpecimen,WholeOrganism,yes,1,1,1,0,Papilionidae,Papilioninae,Leptocircini,Lepidoptera,Rhopalocera,6
279,ZMA.INS.1276232,ZMA.INS,1276232,Papilio,memnon,memnon,"Linnaeus, 1758",0,male,"Moonen, J.J.M.",2016/02/06,Lepidoptera,PreservedSpecimen,WholeOrganism,yes,1,1,1,0,Papilionidae,Papilioninae,Papilionini,Lepidoptera,Rhopalocera,6
280,ZMA.INS.1276235,ZMA.INS,1276235,Papilio,memnon,memnon,"Linnaeus, 1758",0,female,"Moonen, J.J.M.",2016/02/06,Lepidoptera,PreservedSpecimen,WholeOrganism,yes,1,1,1,0,Papilionidae,Papilioninae,Papilionini,Lepidoptera,Rhopalocera,6
281,ZMA.INS.1276236,ZMA.INS,1276236,Papilio,memnon,memnon,"Linnaeus, 1758",0,male,"Moonen, J.J.M.",2016/02/06,Lepidoptera,PreservedSpecimen,WholeOrganism,yes,1,1,1,0,Papilionidae,Papilioninae,Papilionini,Lepidoptera,Rhopalocera,6
282,ZMA.INS.1276339,ZMA.INS,1276339,Papilio,memnon,memnon,"Linnaeus, 1758",0,male,"Moonen, J.J.M.",2016/02/06,Lepidoptera,PreservedSpecimen,WholeOrganism,yes,1,1,1,0,Papilionidae,Papilioninae,Papilionini,Lepidoptera,Rhopalocera,6
283,ZMA.INS.1276349,ZMA.INS,1276349,Papilio,memnon,memnon,"Linnaeus, 1758",0,male,"Moonen, J.J.M.",2016/02/06,Lepidoptera,PreservedSpecimen,WholeOrganism,yes,1,1,1,0,Papilionidae,Papilioninae,Papilionini,Lepidoptera,Rhopalocera,6
284,ZMA.INS.1276376,ZMA.INS,1276376,Papilio,memnon,memnon,"Linnaeus, 1758",0,male,"Moonen, J.J.M.",2016/02/06,Lepidoptera,PreservedSpecimen,WholeOrganism,yes,1,1,1,0,Papilionidae,Papilioninae,Papilionini,Lepidoptera,Rhopalocera,6
285,ZMA.INS.1276404,ZMA.INS,1276404,Papilio,memnon,memnon,"Linnaeus, 1758",0,female,"Moonen, J.J.M.",2016/02/06,Lepidoptera,PreservedSpecimen,WholeOrganism,yes,1,1,1,0,Papilionidae,Papilioninae,Papilionini,Lepidoptera,Rhopalocera,6
286,ZMA.INS.1276410,ZMA.INS,1276410,Papilio,memnon,memnon,"Linnaeus, 1758",0,male,"Moonen, J.J.M.",2016/02/06,Lepidoptera,PreservedSpecimen,WholeOrganism,yes,1,1,1,0,Papilionidae,Papilioninae,Papilionini,Lepidoptera,Rhopalocera,6
287,ZMA.INS.1276513,ZMA.INS,1276513,Papilio,memnon,memnon,"Linnaeus, 1758",0,male,"Moonen, J.J.M.",2016/02/06,Lepidoptera,PreservedSpecimen,WholeOrganism,yes,1,1,1,0,Papilionidae,Papilioninae,Papilionini,Lepidoptera,Rhopalocera,6
288,ZMA.INS.1276533,ZMA.INS,1276533,Papilio,memnon,memnon,"Linnaeus, 1758",0,male,"Moonen, J.J.M.",2016/02/06,Lepidoptera,PreservedSpecimen,WholeOrganism,yes,1,1,1,0,Papilionidae,Papilioninae,Papilionini,Lepidoptera,Rhopalocera,6
289,ZMA.INS.1276554,ZMA.INS,1276554,Papilio,memnon,memnon,"Linnaeus, 1758",0,male,"Moonen, J.J.M.",2016/02/06,Lepidoptera,PreservedSpecimen,WholeOrganism,yes,1,1,1,0,Papilionidae,Papilioninae,Papilionini,Lepidoptera,Rhopalocera,6
290,ZMA.INS.1276562,ZMA.INS,1276562,Papilio,memnon,memnon,"Linnaeus, 1758",0,female,"Moonen, J.J.M.",2016/02/06,Lepidoptera,PreservedSpecimen,WholeOrganism,yes,1,1,1,0,Papilionidae,Papilioninae,Papilionini,Lepidoptera,Rhopalocera,6
291,ZMA.INS.1276596,ZMA.INS,1276596,Papilio,memnon,memnon,"Linnaeus, 1758",0,male,"Moonen, J.J.M.",2016/02/07,Lepidoptera,PreservedSpecimen,WholeOrganism,yes,1,1,1,0,Papilionidae,Papilioninae,Papilionini,Lepidoptera,Rhopalocera,6
292,ZMA.INS.1276610,ZMA.INS,1276610,Papilio,memnon,memnon,"Linnaeus, 1758",0,female,"Moonen, J.J.M.",2016/02/07,Lepidoptera,PreservedSpecimen,WholeOrganism,yes,1,1,1,0,Papilionidae,Papilioninae,Papilionini,Lepidoptera,Rhopalocera,6
293,ZMA.INS.1276614,ZMA.INS,1276614,Papilio,memnon,memnon,"Linnaeus, 1758",0,male,"Moonen, J.J.M.",2016/02/07,Lepidoptera,PreservedSpecimen,WholeOrganism,yes,1,1,1,0,Papilionidae,Papilioninae,Papilionini,Lepidoptera,Rhopalocera,6
294,ZMA.INS.1276629,ZMA.INS,1276629,Papilio,memnon,memnon,"Linnaeus, 1758",0,male,"Moonen, J.J.M.",2016/02/14,Lepidoptera,PreservedSpecimen,WholeOrganism,yes,1,1,1,0,Papilionidae,Papilioninae,Papilionini,Lepidoptera,Rhopalocera,6
295,ZMA.INS.1276642,ZMA.INS,1276642,Papilio,memnon,memnon,"Linnaeus, 1758",0,male,"Moonen, J.J.M.",2016/02/14,Lepidoptera,PreservedSpecimen,WholeOrganism,yes,1,1,1,0,Papilionidae,Papilioninae,Papilionini,Lepidoptera,Rhopalocera,6
296,ZMA.INS.1276645,ZMA.INS,1276645,Papilio,memnon,memnon,"Linnaeus, 1758",0,female,"Moonen, J.J.M.",2016/02/14,Lepidoptera,PreservedSpecimen,WholeOrganism,yes,1,1,1,0,Papilionidae,Papilioninae,Papilionini,Lepidoptera,Rhopalocera,6
297,ZMA.INS.1276653,ZMA.INS,1276653,Papilio,memnon,memnon,"Linnaeus, 1758",0,male,"Moonen, J.J.M.",2016/02/14,Lepidoptera,PreservedSpecimen,WholeOrganism,yes,1,1,1,0,Papilionidae,Papilioninae,Papilionini,Lepidoptera,Rhopalocera,6
298,ZMA.INS.1276655,ZMA.INS,1276655,Papilio,memnon,memnon,"Linnaeus, 1758",0,male,"Moonen, J.J.M.",2016/02/14,Lepidoptera,PreservedSpecimen,WholeOrganism,yes,1,1,1,0,Papilionidae,Papilioninae,Papilionini,Lepidoptera,Rhopalocera,6
299,ZMA.INS.1276661,ZMA.INS,1276661,Papilio,memnon,memnon,"Linnaeus, 1758",0,male,"Moonen, J.J.M.",2016/02/14,Lepidoptera,PreservedSpecimen,WholeOrganism,yes,1,1,1,0,Papilionidae,Papilioninae,Papilionini,Lepidoptera,Rhopalocera,6
300,ZMA.INS.1276673,ZMA.INS,1276673,Papilio,memnon,memnon,"Linnaeus, 1758",0,male,"Moonen, J.J.M.",2016/02/14,Lepidoptera,PreservedSpecimen,WholeOrganism,yes,1,1,1,0,Papilionidae,Papilioninae,Papilionini,Lepidoptera,Rhopalocera,6
301,ZMA.INS.1275569,ZMA.INS,1275569,Papilio,nephelus,nephelus,"Boisduval, 1836",0,male,"Moonen, J.J.M.",2016/02/05,Lepidoptera,PreservedSpecimen,WholeOrganism,yes,1,1,1,0,Papilionidae,Papilioninae,Papilionini,Lepidoptera,Rhopalocera,6
302,ZMA.INS.1276221,ZMA.INS,1276221,Atrophaneura,nox,nox,"Swainson, 1822/23",1,female,"Moonen, J.J.M.",2016/02/06,Lepidoptera,PreservedSpecimen,WholeOrganism,yes,1,1,1,0,Papilionidae,Papilioninae,Troidini,Lepidoptera,Rhopalocera,6
303,ZMA.INS.1276241,ZMA.INS,1276241,Atrophaneura,nox,nox,"Swainson, 1822/23",1,female,"Moonen, J.J.M.",2016/02/06,Lepidoptera,PreservedSpecimen,WholeOrganism,yes,1,1,1,0,Papilionidae,Papilioninae,Troidini,Lepidoptera,Rhopalocera,6
304,ZMA.INS.1276670,ZMA.INS,1276670,Atrophaneura,nox,nox,"Swainson, 1822/23",1,female,"Moonen, J.J.M.",2016/02/14,Lepidoptera,PreservedSpecimen,WholeOrganism,yes,1,1,1,0,Papilionidae,Papilioninae,Troidini,Lepidoptera,Rhopalocera,6
305,ZMA.INS.1276326,ZMA.INS,1276326,Papilio,paris,gedeensis,"Fruhstorfer, 1893",0,male,"Moonen, J.J.M.",2016/02/06,Lepidoptera,PreservedSpecimen,WholeOrganism,yes,1,1,1,0,Papilionidae,Papilioninae,Papilionini,Lepidoptera,Rhopalocera,6
306,ZMA.INS.1276327,ZMA.INS,1276327,Papilio,paris,gedeensis,"Fruhstorfer, 1893",0,male,"Moonen, J.J.M.",2016/02/06,Lepidoptera,PreservedSpecimen,WholeOrganism,yes,1,1,1,0,Papilionidae,Papilioninae,Papilionini,Lepidoptera,Rhopalocera,6
307,ZMA.INS.1276345,ZMA.INS,1276345,Papilio,paris,gedeensis,"Fruhstorfer, 1893",0,male,"Moonen, J.J.M.",2016/02/06,Lepidoptera,PreservedSpecimen,WholeOrganism,yes,1,1,1,0,Papilionidae,Papilioninae,Papilionini,Lepidoptera,Rhopalocera,6
308,ZMA.INS.1276350,ZMA.INS,1276350,Papilio,paris,gedeensis,"Fruhstorfer, 1893",0,male,"Moonen, J.J.M.",2016/02/06,Lepidoptera,PreservedSpecimen,WholeOrganism,yes,1,1,1,0,Papilionidae,Papilioninae,Papilionini,Lepidoptera,Rhopalocera,6
309,ZMA.INS.1276351,ZMA.INS,1276351,Papilio,paris,gedeensis,"Fruhstorfer, 1893",0,male,"Moonen, J.J.M.",2016/02/06,Lepidoptera,PreservedSpecimen,WholeOrganism,yes,1,1,1,0,Papilionidae,Papilioninae,Papilionini,Lepidoptera,Rhopalocera,6
310,ZMA.INS.1276352,ZMA.INS,1276352,Papilio,paris,gedeensis,"Fruhstorfer, 1893",0,male,"Moonen, J.J.M.",2016/02/06,Lepidoptera,PreservedSpecimen,WholeOrganism,yes,1,1,1,0,Papilionidae,Papilioninae,Papilionini,Lepidoptera,Rhopalocera,6
311,ZMA.INS.1276353,ZMA.INS,1276353,Papilio,paris,gedeensis,"Fruhstorfer, 1893",0,male,"Moonen, J.J.M.",2016/02/06,Lepidoptera,PreservedSpecimen,WholeOrganism,yes,1,1,1,0,Papilionidae,Papilioninae,Papilionini,Lepidoptera,Rhopalocera,6
312,ZMA.INS.1276354,ZMA.INS,1276354,Papilio,paris,gedeensis,"Fruhstorfer, 1893",0,male,"Moonen, J.J.M.",2016/02/06,Lepidoptera,PreservedSpecimen,WholeOrganism,yes,1,1,1,0,Papilionidae,Papilioninae,Papilionini,Lepidoptera,Rhopalocera,6
313,ZMA.INS.1276358,ZMA.INS,1276358,Papilio,paris,gedeensis,"Fruhstorfer, 1893",0,male,"Moonen, J.J.M.",2016/02/06,Lepidoptera,PreservedSpecimen,WholeOrganism,yes,1,1,1,0,Papilionidae,Papilioninae,Papilionini,Lepidoptera,Rhopalocera,6
314,ZMA.INS.1276371,ZMA.INS,1276371,Papilio,paris,gedeensis,"Fruhstorfer, 1893",0,male,"Moonen, J.J.M.",2016/02/06,Lepidoptera,PreservedSpecimen,WholeOrganism,yes,1,1,1,0,Papilionidae,Papilioninae,Papilionini,Lepidoptera,Rhopalocera,6
315,ZMA.INS.1276372,ZMA.INS,1276372,Papilio,paris,gedeensis,"Fruhstorfer, 1893",0,male,"Moonen, J.J.M.",2016/02/06,Lepidoptera,PreservedSpecimen,WholeOrganism,yes,1,1,1,0,Papilionidae,Papilioninae,Papilionini,Lepidoptera,Rhopalocera,6
316,ZMA.INS.1276380,ZMA.INS,1276380,Papilio,paris,gedeensis,"Fruhstorfer, 1893",0,male,"Moonen, J.J.M.",2016/02/06,Lepidoptera,PreservedSpecimen,WholeOrganism,yes,1,1,1,0,Papilionidae,Papilioninae,Papilionini,Lepidoptera,Rhopalocera,6
317,ZMA.INS.1276383,ZMA.INS,1276383,Papilio,paris,gedeensis,"Fruhstorfer, 1893",0,male,"Moonen, J.J.M.",2016/02/06,Lepidoptera,PreservedSpecimen,WholeOrganism,yes,1,1,1,0,Papilionidae,Papilioninae,Papilionini,Lepidoptera,Rhopalocera,6
318,ZMA.INS.1276387,ZMA.INS,1276387,Papilio,paris,gedeensis,"Fruhstorfer, 1893",0,male,"Moonen, J.J.M.",2016/02/06,Lepidoptera,PreservedSpecimen,WholeOrganism,yes,1,1,1,0,Papilionidae,Papilioninae,Papilionini,Lepidoptera,Rhopalocera,6
319,ZMA.INS.1276392,ZMA.INS,1276392,Papilio,paris,gedeensis,"Fruhstorfer, 1893",0,male,"Moonen, J.J.M.",2016/02/06,Lepidoptera,PreservedSpecimen,WholeOrganism,yes,1,1,1,0,Papilionidae,Papilioninae,Papilionini,Lepidoptera,Rhopalocera,6
320,ZMA.INS.1276402,ZMA.INS,1276402,Papilio,paris,gedeensis,"Fruhstorfer, 1893",0,male,"Moonen, J.J.M.",2016/02/06,Lepidoptera,PreservedSpecimen,WholeOrganism,yes,1,1,1,0,Papilionidae,Papilioninae,Papilionini,Lepidoptera,Rhopalocera,6
321,ZMA.INS.1276407,ZMA.INS,1276407,Papilio,paris,gedeensis,"Fruhstorfer, 1893",0,male,"Moonen, J.J.M.",2016/02/06,Lepidoptera,PreservedSpecimen,WholeOrganism,yes,1,1,1,0,Papilionidae,Papilioninae,Papilionini,Lepidoptera,Rhopalocera,6
322,ZMA.INS.1276425,ZMA.INS,1276425,Papilio,paris,gedeensis,"Fruhstorfer, 1893",0,male,"Moonen, J.J.M.",2016/02/06,Lepidoptera,PreservedSpecimen,WholeOrganism,yes,1,1,1,0,Papilionidae,Papilioninae,Papilionini,Lepidoptera,Rhopalocera,6
323,ZMA.INS.1276436,ZMA.INS,1276436,Papilio,paris,gedeensis,"Fruhstorfer, 1893",0,male,"Moonen, J.J.M.",2016/02/06,Lepidoptera,PreservedSpecimen,WholeOrganism,yes,1,1,1,0,Papilionidae,Papilioninae,Papilionini,Lepidoptera,Rhopalocera,6
324,ZMA.INS.1276503,ZMA.INS,1276503,Papilio,paris,gedeensis,"Fruhstorfer, 1893",0,male,"Moonen, J.J.M.",2016/02/06,Lepidoptera,PreservedSpecimen,WholeOrganism,yes,1,1,1,0,Papilionidae,Papilioninae,Papilionini,Lepidoptera,Rhopalocera,6
325,ZMA.INS.1276521,ZMA.INS,1276521,Papilio,paris,gedeensis,"Fruhstorfer, 1893",0,male,"Moonen, J.J.M.",2016/02/06,Lepidoptera,PreservedSpecimen,WholeOrganism,yes,1,1,1,0,Papilionidae,Papilioninae,Papilionini,Lepidoptera,Rhopalocera,6
326,ZMA.INS.1276523,ZMA.INS,1276523,Papilio,paris,gedeensis,"Fruhstorfer, 1893",0,male,"Moonen, J.J.M.",2016/02/06,Lepidoptera,PreservedSpecimen,WholeOrganism,yes,1,1,1,0,Papilionidae,Papilioninae,Papilionini,Lepidoptera,Rhopalocera,6
327,ZMA.INS.1276536,ZMA.INS,1276536,Papilio,paris,gedeensis,"Fruhstorfer, 1893",0,male,"Moonen, J.J.M.",2016/02/06,Lepidoptera,PreservedSpecimen,WholeOrganism,yes,1,1,1,0,Papilionidae,Papilioninae,Papilionini,Lepidoptera,Rhopalocera,6
328,ZMA.INS.1276546,ZMA.INS,1276546,Papilio,paris,gedeensis,"Fruhstorfer, 1893",0,male,"Moonen, J.J.M.",2016/02/06,Lepidoptera,PreservedSpecimen,WholeOrganism,yes,1,1,1,0,Papilionidae,Papilioninae,Papilionini,Lepidoptera,Rhopalocera,6
329,ZMA.INS.1276547,ZMA.INS,1276547,Papilio,paris,gedeensis,"Fruhstorfer, 1893",0,male,"Moonen, J.J.M.",2016/02/06,Lepidoptera,PreservedSpecimen,WholeOrganism,yes,1,1,1,0,Papilionidae,Papilioninae,Papilionini,Lepidoptera,Rhopalocera,6
330,ZMA.INS.1276549,ZMA.INS,1276549,Papilio,paris,gedeensis,"Fruhstorfer, 1893",0,male,"Moonen, J.J.M.",2016/02/06,Lepidoptera,PreservedSpecimen,WholeOrganism,yes,1,1,1,0,Papilionidae,Papilioninae,Papilionini,Lepidoptera,Rhopalocera,6
331,ZMA.INS.1276563,ZMA.INS,1276563,Papilio,paris,gedeensis,"Fruhstorfer, 1893",0,male,"Moonen, J.J.M.",2016/02/06,Lepidoptera,PreservedSpecimen,WholeOrganism,yes,1,1,1,0,Papilionidae,Papilioninae,Papilionini,Lepidoptera,Rhopalocera,6
332,ZMA.INS.1276566,ZMA.INS,1276566,Papilio,paris,gedeensis,"Fruhstorfer, 1893",0,male,"Moonen, J.J.M.",2016/02/06,Lepidoptera,PreservedSpecimen,WholeOrganism,yes,1,1,1,0,Papilionidae,Papilioninae,Papilionini,Lepidoptera,Rhopalocera,6
333,ZMA.INS.1276583,ZMA.INS,1276583,Papilio,paris,gedeensis,"Fruhstorfer, 1893",0,male,"Moonen, J.J.M.",2016/02/07,Lepidoptera,PreservedSpecimen,WholeOrganism,yes,1,1,1,0,Papilionidae,Papilioninae,Papilionini,Lepidoptera,Rhopalocera,6
334,ZMA.INS.1276594,ZMA.INS,1276594,Papilio,paris,gedeensis,"Fruhstorfer, 1893",0,male,"Moonen, J.J.M.",2016/02/07,Lepidoptera,PreservedSpecimen,WholeOrganism,yes,1,1,1,0,Papilionidae,Papilioninae,Papilionini,Lepidoptera,Rhopalocera,6
335,ZMA.INS.1276604,ZMA.INS,1276604,Papilio,paris,gedeensis,"Fruhstorfer, 1893",0,male,"Moonen, J.J.M.",2016/02/07,Lepidoptera,PreservedSpecimen,WholeOrganism,yes,1,1,1,0,Papilionidae,Papilioninae,Papilionini,Lepidoptera,Rhopalocera,6
336,ZMA.INS.1276605,ZMA.INS,1276605,Papilio,paris,gedeensis,"Fruhstorfer, 1893",0,male,"Moonen, J.J.M.",2016/02/07,Lepidoptera,PreservedSpecimen,WholeOrganism,yes,1,1,1,0,Papilionidae,Papilioninae,Papilionini,Lepidoptera,Rhopalocera,6
337,ZMA.INS.1276611,ZMA.INS,1276611,Papilio,paris,gedeensis,"Fruhstorfer, 1893",0,male,"Moonen, J.J.M.",2016/02/07,Lepidoptera,PreservedSpecimen,WholeOrganism,yes,1,1,1,0,Papilionidae,Papilioninae,Papilionini,Lepidoptera,Rhopalocera,6
338,ZMA.INS.1276619,ZMA.INS,1276619,Papilio,paris,gedeensis,"Fruhstorfer, 1893",0,male,"Moonen, J.J.M.",2016/02/07,Lepidoptera,PreservedSpecimen,WholeOrganism,yes,1,1,1,0,Papilionidae,Papilioninae,Papilionini,Lepidoptera,Rhopalocera,6
339,ZMA.INS.1276623,ZMA.INS,1276623,Papilio,paris,gedeensis,"Fruhstorfer, 1893",0,male,"Moonen, J.J.M.",2016/02/14,Lepidoptera,PreservedSpecimen,WholeOrganism,yes,1,1,1,0,Papilionidae,Papilioninae,Papilionini,Lepidoptera,Rhopalocera,6
340,ZMA.INS.1276625,ZMA.INS,1276625,Papilio,paris,gedeensis,"Fruhstorfer, 1893",0,male,"Moonen, J.J.M.",2016/02/14,Lepidoptera,PreservedSpecimen,WholeOrganism,yes,1,1,1,0,Papilionidae,Papilioninae,Papilionini,Lepidoptera,Rhopalocera,6
341,ZMA.INS.1276626,ZMA.INS,1276626,Papilio,paris,gedeensis,"Fruhstorfer, 1893",0,male,"Moonen, J.J.M.",2016/02/14,Lepidoptera,PreservedSpecimen,WholeOrganism,yes,1,1,1,0,Papilionidae,Papilioninae,Papilionini,Lepidoptera,Rhopalocera,6
342,ZMA.INS.1276635,ZMA.INS,1276635,Papilio,paris,gedeensis,"Fruhstorfer, 1893",0,male,"Moonen, J.J.M.",2016/02/14,Lepidoptera,PreservedSpecimen,WholeOrganism,yes,1,1,1,0,Papilionidae,Papilioninae,Papilionini,Lepidoptera,Rhopalocera,6
343,ZMA.INS.1276649,ZMA.INS,1276649,Papilio,paris,gedeensis,"Fruhstorfer, 1893",0,male,"Moonen, J.J.M.",2016/02/14,Lepidoptera,PreservedSpecimen,WholeOrganism,yes,1,1,1,0,Papilionidae,Papilioninae,Papilionini,Lepidoptera,Rhopalocera,6
344,ZMA.INS.1276656,ZMA.INS,1276656,Papilio,paris,gedeensis,"Fruhstorfer, 1893",0,male,"Moonen, J.J.M.",2016/02/14,Lepidoptera,PreservedSpecimen,WholeOrganism,yes,1,1,1,0,Papilionidae,Papilioninae,Papilionini,Lepidoptera,Rhopalocera,6
345,ZMA.INS.1276659,ZMA.INS,1276659,Papilio,paris,gedeensis,"Fruhstorfer, 1893",0,male,"Moonen, J.J.M.",2016/02/14,Lepidoptera,PreservedSpecimen,WholeOrganism,yes,1,1,1,0,Papilionidae,Papilioninae,Papilionini,Lepidoptera,Rhopalocera,6
346,ZMA.INS.1276662,ZMA.INS,1276662,Papilio,paris,gedeensis,"Fruhstorfer, 1893",0,male,"Moonen, J.J.M.",2016/02/14,Lepidoptera,PreservedSpecimen,WholeOrganism,yes,1,1,1,0,Papilionidae,Papilioninae,Papilionini,Lepidoptera,Rhopalocera,6
347,ZMA.INS.1275538,ZMA.INS,1275538,Papilio,peranthus,peranthus,"Fabricius, 1787",0,male,"Moonen, J.J.M.",2016/02/05,Lepidoptera,PreservedSpecimen,WholeOrganism,yes,1,1,1,0,Papilionidae,Papilioninae,Papilionini,Lepidoptera,Rhopalocera,6
348,ZMA.INS.1275539,ZMA.INS,1275539,Papilio,peranthus,peranthus,"Fabricius, 1787",0,male,"Moonen, J.J.M.",2016/02/05,Lepidoptera,PreservedSpecimen,WholeOrganism,yes,1,1,1,0,Papilionidae,Papilioninae,Papilionini,Lepidoptera,Rhopalocera,6
349,ZMA.INS.1275545,ZMA.INS,1275545,Papilio,peranthus,peranthus,"Fabricius, 1787",0,male,"Moonen, J.J.M.",2016/02/05,Lepidoptera,PreservedSpecimen,WholeOrganism,yes,1,1,1,0,Papilionidae,Papilioninae,Papilionini,Lepidoptera,Rhopalocera,6
350,ZMA.INS.1275549,ZMA.INS,1275549,Papilio,peranthus,peranthus,"Fabricius, 1787",0,male,"Moonen, J.J.M.",2016/02/05,Lepidoptera,PreservedSpecimen,WholeOrganism,yes,1,1,1,0,Papilionidae,Papilioninae,Papilionini,Lepidoptera,Rhopalocera,6
351,ZMA.INS.1275571,ZMA.INS,1275571,Papilio,peranthus,peranthus,"Fabricius, 1787",0,male,"Moonen, J.J.M.",2016/02/05,Lepidoptera,PreservedSpecimen,WholeOrganism,yes,1,1,1,0,Papilionidae,Papilioninae,Papilionini,Lepidoptera,Rhopalocera,6
352,ZMA.INS.1276230,ZMA.INS,1276230,Papilio,peranthus,peranthus,"Fabricius, 1787",0,male,"Moonen, J.J.M.",2016/02/06,Lepidoptera,PreservedSpecimen,WholeOrganism,yes,1,1,1,0,Papilionidae,Papilioninae,Papilionini,Lepidoptera,Rhopalocera,6
353,ZMA.INS.1276238,ZMA.INS,1276238,Papilio,peranthus,peranthus,"Fabricius, 1787",0,male,"Moonen, J.J.M.",2016/02/06,Lepidoptera,PreservedSpecimen,WholeOrganism,yes,1,1,1,0,Papilionidae,Papilioninae,Papilionini,Lepidoptera,Rhopalocera,6
354,ZMA.INS.1276244,ZMA.INS,1276244,Papilio,peranthus,peranthus,"Fabricius, 1787",0,male,"Moonen, J.J.M.",2016/02/06,Lepidoptera,PreservedSpecimen,WholeOrganism,yes,1,1,1,0,Papilionidae,Papilioninae,Papilionini,Lepidoptera,Rhopalocera,6
355,ZMA.INS.1276253,ZMA.INS,1276253,Papilio,peranthus,peranthus,"Fabricius, 1787",0,female,"Moonen, J.J.M.",2016/02/06,Lepidoptera,PreservedSpecimen,WholeOrganism,yes,1,1,1,0,Papilionidae,Papilioninae,Papilionini,Lepidoptera,Rhopalocera,6
356,ZMA.INS.1276259,ZMA.INS,1276259,Papilio,peranthus,peranthus,"Fabricius, 1787",0,male,"Moonen, J.J.M.",2016/02/06,Lepidoptera,PreservedSpecimen,WholeOrganism,yes,1,1,1,0,Papilionidae,Papilioninae,Papilionini,Lepidoptera,Rhopalocera,6
357,ZMA.INS.1276222,ZMA.INS,1276222,Papilio,polytes,javanus,"Felder, 1864",0,male,"Moonen, J.J.M.",2016/02/06,Lepidoptera,PreservedSpecimen,WholeOrganism,yes,1,1,1,0,Papilionidae,Papilioninae,Papilionini,Lepidoptera,Rhopalocera,6
358,ZMA.INS.1276246,ZMA.INS,1276246,Papilio,polytes,javanus,"Felder, 1864",0,female,"Moonen, J.J.M.",2016/02/06,Lepidoptera,PreservedSpecimen,WholeOrganism,yes,1,1,1,0,Papilionidae,Papilioninae,Papilionini,Lepidoptera,Rhopalocera,6
359,ZMA.INS.1276328,ZMA.INS,1276328,Papilio,polytes,javanus,"Felder, 1864",0,male,"Moonen, J.J.M.",2016/02/06,Lepidoptera,PreservedSpecimen,WholeOrganism,yes,1,1,1,0,Papilionidae,Papilioninae,Papilionini,Lepidoptera,Rhopalocera,6
360,ZMA.INS.1276340,ZMA.INS,1276340,Papilio,polytes,javanus,"Felder, 1864",0,female,"Moonen, J.J.M.",2016/02/06,Lepidoptera,PreservedSpecimen,WholeOrganism,yes,1,1,1,0,Papilionidae,Papilioninae,Papilionini,Lepidoptera,Rhopalocera,6
361,ZMA.INS.1276343,ZMA.INS,1276343,Papilio,polytes,javanus,"Felder, 1864",0,male,"Moonen, J.J.M.",2016/02/06,Lepidoptera,PreservedSpecimen,WholeOrganism,yes,1,1,1,0,Papilionidae,Papilioninae,Papilionini,Lepidoptera,Rhopalocera,6
362,ZMA.INS.1276365,ZMA.INS,1276365,Papilio,polytes,javanus,"Felder, 1864",0,male,"Moonen, J.J.M.",2016/02/06,Lepidoptera,PreservedSpecimen,WholeOrganism,yes,1,1,1,0,Papilionidae,Papilioninae,Papilionini,Lepidoptera,Rhopalocera,6
363,ZMA.INS.1276415,ZMA.INS,1276415,Papilio,polytes,javanus,"Felder, 1864",0,male,"Moonen, J.J.M.",2016/02/06,Lepidoptera,PreservedSpecimen,WholeOrganism,yes,1,1,1,0,Papilionidae,Papilioninae,Papilionini,Lepidoptera,Rhopalocera,6
364,ZMA.INS.1276502,ZMA.INS,1276502,Papilio,polytes,javanus,"Felder, 1864",0,male,"Moonen, J.J.M.",2016/02/06,Lepidoptera,PreservedSpecimen,WholeOrganism,yes,1,1,1,0,Papilionidae,Papilioninae,Papilionini,Lepidoptera,Rhopalocera,6
365,ZMA.INS.1276506,ZMA.INS,1276506,Papilio,polytes,javanus,"Felder, 1864",0,female,"Moonen, J.J.M.",2016/02/06,Lepidoptera,PreservedSpecimen,WholeOrganism,yes,1,1,1,0,Papilionidae,Papilioninae,Papilionini,Lepidoptera,Rhopalocera,6
366,ZMA.INS.1276520,ZMA.INS,1276520,Papilio,polytes,javanus,"Felder, 1864",0,male,"Moonen, J.J.M.",2016/02/06,Lepidoptera,PreservedSpecimen,WholeOrganism,yes,1,1,1,0,Papilionidae,Papilioninae,Papilionini,Lepidoptera,Rhopalocera,6
367,ZMA.INS.1276539,ZMA.INS,1276539,Papilio,polytes,javanus,"Felder, 1864",0,male,"Moonen, J.J.M.",2016/02/06,Lepidoptera,PreservedSpecimen,WholeOrganism,yes,1,1,1,0,Papilionidae,Papilioninae,Papilionini,Lepidoptera,Rhopalocera,6
368,ZMA.INS.1276541,ZMA.INS,1276541,Papilio,polytes,javanus,"Felder, 1864",0,male,"Moonen, J.J.M.",2016/02/06,Lepidoptera,PreservedSpecimen,WholeOrganism,yes,1,1,1,0,Papilionidae,Papilioninae,Papilionini,Lepidoptera,Rhopalocera,6
369,ZMA.INS.1276542,ZMA.INS,1276542,Papilio,polytes,javanus,"Felder, 1864",0,male,"Moonen, J.J.M.",2016/02/06,Lepidoptera,PreservedSpecimen,WholeOrganism,yes,1,1,1,0,Papilionidae,Papilioninae,Papilionini,Lepidoptera,Rhopalocera,6
370,ZMA.INS.1276552,ZMA.INS,1276552,Papilio,polytes,javanus,"Felder, 1864",0,female,"Moonen, J.J.M.",2016/02/06,Lepidoptera,PreservedSpecimen,WholeOrganism,yes,1,1,1,0,Papilionidae,Papilioninae,Papilionini,Lepidoptera,Rhopalocera,6
371,ZMA.INS.1276584,ZMA.INS,1276584,Papilio,polytes,javanus,"Felder, 1864",0,female,"Moonen, J.J.M.",2016/02/07,Lepidoptera,PreservedSpecimen,WholeOrganism,yes,1,1,1,0,Papilionidae,Papilioninae,Papilionini,Lepidoptera,Rhopalocera,6
372,ZMA.INS.1275559,ZMA.INS,1275559,Ideopsis,vulgaris,,"Butler, 1874",1,,"Moonen, J.J.M.",2016/02/05,Lepidoptera,PreservedSpecimen,WholeOrganism,yes,1,1,1,0,Nymphalidae,Danainae,Danaini,Lepidoptera,Rhopalocera,6
373,ZMA.INS.1275533,ZMA.INS,1275533,Euploea,,,"Fabricius, 1807",0,,"Moonen, J.J.M.",2016/02/05,Lepidoptera,PreservedSpecimen,WholeOrganism,yes,1,1,1,0,Nymphalidae,Danainae,Danaini,Lepidoptera,Rhopalocera,6
374,ZMA.INS.1275535,ZMA.INS,1275535,Euploea,,,"Fabricius, 1807",0,,"Moonen, J.J.M.",2016/02/05,Lepidoptera,PreservedSpecimen,WholeOrganism,yes,1,1,1,0,Nymphalidae,Danainae,Danaini,Lepidoptera,Rhopalocera,6
375,ZMA.INS.1275536,ZMA.INS,1275536,Euploea,,,"Fabricius, 1807",0,,"Moonen, J.J.M.",2016/02/05,Lepidoptera,PreservedSpecimen,WholeOrganism,yes,1,1,1,0,Nymphalidae,Danainae,Danaini,Lepidoptera,Rhopalocera,6
376,ZMA.INS.1275537,ZMA.INS,1275537,Euploea,,,"Fabricius, 1807",0,,"Moonen, J.J.M.",2016/02/05,Lepidoptera,PreservedSpecimen,WholeOrganism,yes,1,1,1,0,Nymphalidae,Danainae,Danaini,Lepidoptera,Rhopalocera,6
377,ZMA.INS.1275548,ZMA.INS,1275548,Euploea,,,"Fabricius, 1807",0, ,"Moonen, J.J.M.",2016/02/05,Lepidoptera,PreservedSpecimen,WholeOrganism,yes,1,1,1,0,Nymphalidae,Danainae,Danaini,Lepidoptera,Rhopalocera,6
378,ZMA.INS.1275562,ZMA.INS,1275562,Euploea,,,"Fabricius, 1807",0,,"Moonen, J.J.M.",2016/02/05,Lepidoptera,PreservedSpecimen,WholeOrganism,yes,1,1,1,0,Nymphalidae,Danainae,Danaini,Lepidoptera,Rhopalocera,6
379,ZMA.INS.1275564,ZMA.INS,1275564,Euploea,,,"Fabricius, 1807",0,,"Moonen, J.J.M.",2016/02/05,Lepidoptera,PreservedSpecimen,WholeOrganism,yes,1,1,1,0,Nymphalidae,Danainae,Danaini,Lepidoptera,Rhopalocera,6
380,ZMA.INS.1275566,ZMA.INS,1275566,Euploea,,,"Fabricius, 1807",0,,"Moonen, J.J.M.",2016/02/05,Lepidoptera,PreservedSpecimen,WholeOrganism,yes,1,1,1,0,Nymphalidae,Danainae,Danaini,Lepidoptera,Rhopalocera,6
381,ZMA.INS.1275575,ZMA.INS,1275575,Euploea,,,"Fabricius, 1807",0, ,"Moonen, J.J.M.",2016/02/05,Lepidoptera,PreservedSpecimen,WholeOrganism,yes,1,1,1,0,Nymphalidae,Danainae,Danaini,Lepidoptera,Rhopalocera,6
