epoch,accuracy,loss,val_accuracy,val_loss
0,0.8823606967926025,0.5680770874023438,0.8982248306274414,0.6122378706932068
1,0.9436119794845581,0.22782966494560242,0.918343186378479,0.523820161819458
2,0.9580704569816589,0.14988838136196136,0.9455621242523193,0.3434152901172638
3,0.9655625820159912,0.1103135496377945,0.9384615421295166,0.31988316774368286
4,0.9759463667869568,0.08344003558158875,0.9431952834129333,0.37560611963272095
5,0.9848843216896057,0.05128234624862671,0.9502958655357361,0.4227622151374817
6,0.9921135902404785,0.029833171516656876,0.939644992351532,0.4065338969230652
7,0.9947423934936523,0.021520033478736877,0.9455621242523193,0.4202611446380615
8,0.996188223361969,0.014387384988367558,0.9431952834129333,0.4726331830024719
9,0.9972397685050964,0.013963553123176098,0.9550296068191528,0.39885181188583374
10,0.9982912540435791,0.00850661564618349,0.9502958655357361,0.4066503345966339
11,0.995793879032135,0.014021911658346653,0.9467455744743347,0.45811229944229126
12,0.9977654814720154,0.011697633191943169,0.9538461565971375,0.40728166699409485
13,0.9972397685050964,0.01481433305889368,0.9514793157577515,0.38675743341445923
14,0.9975026249885559,0.011759331449866295,0.9514793157577515,0.3859078586101532
15,0.9980283975601196,0.009345155209302902,0.9479289650917053,0.40383967757225037
16,0.9984227418899536,0.008202360942959785,0.9585798978805542,0.4255736470222473
17,0.996582567691803,0.0116492984816432,0.9526627063751221,0.5363548398017883
18,0.9975026249885559,0.006657433230429888,0.9538461565971375,0.4254957437515259
19,0.9984227418899536,0.006356608122587204,0.9514793157577515,0.36726081371307373
20,0.9980283975601196,0.006810725666582584,0.9656804800033569,0.3859449625015259
21,0.9992113709449768,0.007428417913615704,0.9467455744743347,0.430977463722229
22,0.9982912540435791,0.010406571440398693,0.9514793157577515,0.5623171925544739
23,0.9994742274284363,0.0030566989444196224,0.9502958655357361,0.4032561779022217
24,0.9980283975601196,0.00910986214876175,0.9479289650917053,0.5242728590965271
25,0.9984227418899536,0.01047554798424244,0.9585798978805542,0.5908282399177551
26,0.9976340532302856,0.015979018062353134,0.9431952834129333,0.6084018349647522
27,0.9989484548568726,0.0060752443969249725,0.939644992351532,0.6086510419845581
28,0.9989484548568726,0.002597556449472904,0.9479289650917053,0.40398550033569336
29,0.9990799427032471,0.004069953691214323,0.9550296068191528,0.5482749342918396
