epoch,accuracy,loss,val_accuracy,val_loss
0,0.4959661662578583,2.6227455139160156,0.8383128046989441,1.396588921546936
1,0.8927130699157715,0.8598977327346802,0.9132981896400452,0.6247174143791199
