,taxname,num_validation_images,tp,fp,tn,fn,precision,recall,accuracy,f1
66,Papilio polytes javanus,27,26,2,470,1,0.9285714285714286,0.9629629629629629,0.9939879759519038,0.9454545454545454
57,Papilio demolion demolion,22,21,1,476,1,0.9545454545454546,0.9545454545454546,0.9959919839679359,0.9545454545454546
55,Graphium antiphates javanicus,21,21,0,478,0,1.0,1.0,1.0,1.0
65,Troides oblongomaculatus oblongomaculatus,21,20,0,478,1,1.0,0.9523809523809523,0.9979959919839679,0.975609756097561
18,Graphium sarpedon lycianus,20,18,2,477,2,0.9,0.9,0.9919839679358717,0.9
67,Graphium anthedon milon,20,20,1,478,0,0.9523809523809523,1.0,0.9979959919839679,0.975609756097561
43,Atrophaneura coon coon,18,17,1,480,1,0.9444444444444444,0.9444444444444444,0.9959919839679359,0.9444444444444444
23,Papilio paris gedeensis,17,15,1,481,2,0.9375,0.8823529411764706,0.9939879759519038,0.9090909090909091
17,Papilio peranthus peranthus,17,17,0,482,0,1.0,1.0,1.0,1.0
27,Troides helena helena,17,17,0,482,0,1.0,1.0,1.0,1.0
13,Delias belisama,16,16,0,483,0,1.0,1.0,1.0,1.0
59,Papilio memnon memnon,16,16,0,483,0,1.0,1.0,1.0,1.0
2,Graphium eurypylus pamphylus,15,14,0,484,1,1.0,0.9333333333333333,0.9979959919839679,0.9655172413793104
14,Graphium agamemnon agamemnon,15,15,0,484,0,1.0,1.0,1.0,1.0
68,Euploea mulciber,15,15,0,484,0,1.0,1.0,1.0,1.0
62,Graphium evemon evemon,14,13,0,485,1,1.0,0.9285714285714286,0.9979959919839679,0.962962962962963
29,Troides amphrysus amphrysus,13,13,0,486,0,1.0,1.0,1.0,1.0
28,Graphium adonarensis lycianus,13,13,2,484,0,0.8666666666666667,1.0,0.9959919839679359,0.9285714285714286
26,Papilio helenus enganius,13,13,0,486,0,1.0,1.0,1.0,1.0
10,Papilio karna karna,12,12,0,487,0,1.0,1.0,1.0,1.0
31,Graphium bathycles bathycles,9,9,0,490,0,1.0,1.0,1.0,1.0
46,Parantica aspasia,9,9,0,490,0,1.0,1.0,1.0,1.0
47,Cyrestis lutea,8,7,0,491,1,1.0,0.875,0.9979959919839679,0.9333333333333333
30,Lamproptera curius curius,7,7,1,491,0,0.875,1.0,0.9979959919839679,0.9333333333333333
4,Graphium meyeri meyeri,7,7,1,491,0,0.875,1.0,0.9979959919839679,0.9333333333333333
34,Graphium macareus macareus,7,7,0,492,0,1.0,1.0,1.0,1.0
50,Papilio nephelus nephelus,6,6,0,493,0,1.0,1.0,1.0,1.0
38,Papilio aegeus ormenus,6,6,0,493,0,1.0,1.0,1.0,1.0
42,Danaus genutia,6,6,0,493,0,1.0,1.0,1.0,1.0
7,Parantica melaneus,6,6,0,493,0,1.0,1.0,1.0,1.0
12,Atrophaneura nox nox,5,5,0,494,0,1.0,1.0,1.0,1.0
63,Graphium aristeus parmatus,5,5,0,494,0,1.0,1.0,1.0,1.0
39,Polyura hebe,5,5,0,494,0,1.0,1.0,1.0,1.0
16,Troides cuneifera cuneifera,4,4,0,495,0,1.0,1.0,1.0,1.0
64,Danaus chrysippus,4,4,0,495,0,1.0,1.0,1.0,1.0
48,Ragadia crisia,4,4,0,495,0,1.0,1.0,1.0,1.0
3,Amathusia phidippus,3,3,0,496,0,1.0,1.0,1.0,1.0
61,Acraea vesta,3,3,0,496,0,1.0,1.0,1.0,1.0
15,Delias hyparete,3,3,0,496,0,1.0,1.0,1.0,1.0
1,Appias nero,3,3,0,496,0,1.0,1.0,1.0,1.0
19,Kallima paralekta,3,3,0,496,0,1.0,1.0,1.0,1.0
45,Lethe confusa,3,3,0,496,0,1.0,1.0,1.0,1.0
52,Graphium doson vulso,3,3,0,496,0,1.0,1.0,1.0,1.0
49,Mycalesis janardana,3,3,0,496,0,1.0,1.0,1.0,1.0
51,Euploea diocletianus,2,1,0,497,1,1.0,0.5,0.9979959919839679,0.6666666666666666
32,Losaria coon coon,2,1,0,497,1,1.0,0.5,0.9979959919839679,0.6666666666666666
56,Elymnias hypermnestra,2,2,0,497,0,1.0,1.0,1.0,1.0
58,Graphium eurypylus lycaonides,2,2,0,497,0,1.0,1.0,1.0,1.0
36,Ideopsis vulgaris,2,2,0,497,0,1.0,1.0,1.0,1.0
33,Graphium milon milon,2,1,0,497,1,1.0,0.5,0.9979959919839679,0.6666666666666666
25,Atrophaneura priapus priapus,2,2,0,497,0,1.0,1.0,1.0,1.0
60,Ideopsis juventa,2,2,0,497,0,1.0,1.0,1.0,1.0
69,Ornithoptera priamus poseidon,2,2,1,496,0,0.6666666666666666,1.0,0.9979959919839679,0.8
54,Graphium isander imparilis,1,1,0,498,0,1.0,1.0,1.0,1.0
0,Stibochiona coresia coresia,1,1,0,498,0,1.0,1.0,1.0,1.0
53,Papilio sataspes sataspes,1,1,0,498,0,1.0,1.0,1.0,1.0
44,Dysphania cuprina,1,1,0,498,0,1.0,1.0,1.0,1.0
41,Idea lyncea,1,1,0,498,0,1.0,1.0,1.0,1.0
40,Papilio peranthus transiens,1,1,0,498,0,1.0,1.0,1.0,1.0
37,Lamproptera meges,1,0,0,498,1,0.0,0.0,0.9979959919839679,0.0
24,Pachliopta adamas adamas,1,1,0,498,0,1.0,1.0,1.0,1.0
22,Graphium androcles androcles,1,1,0,498,0,1.0,1.0,1.0,1.0
21,Papilio memnon subclathratus,1,1,0,498,0,1.0,1.0,1.0,1.0
20,Appias (indra)leptis,1,1,0,498,0,1.0,1.0,1.0,1.0
11,Graphium agamemnon ligatus,1,1,0,498,0,1.0,1.0,1.0,1.0
9,Losaria palu,1,1,0,498,0,1.0,1.0,1.0,1.0
8,Troides vandepolli vandepolli,1,1,0,498,0,1.0,1.0,1.0,1.0
6,Hypolimnas misippus,1,1,0,498,0,1.0,1.0,1.0,1.0
5,Euploea rhadamanthus (= diocletianus),1,1,1,497,0,0.5,1.0,0.9979959919839679,0.6666666666666666
35,Vindula arsinoe,1,1,0,498,0,1.0,1.0,1.0,1.0
